[gd_scene load_steps=30 format=2]

[ext_resource path="res://assets/textures/dirt2.png" type="Texture" id=1]
[ext_resource path="res://assets/textures/stone1.png" type="Texture" id=2]
[ext_resource path="res://assets/Ceiling.tscn" type="PackedScene" id=3]
[ext_resource path="res://assets/Player.tscn" type="PackedScene" id=4]
[ext_resource path="res://assets/decorations/StonePedestal.tscn" type="PackedScene" id=5]
[ext_resource path="res://src/Level10.gd" type="Script" id=6]

[sub_resource type="Environment" id=1]
background_mode = 1
background_color = Color( 0.156863, 0, 0, 1 )
ambient_light_color = Color( 0.588235, 0.470588, 0.470588, 1 )
ambient_light_energy = 1.75

[sub_resource type="NavigationMesh" id=2]
vertices = PoolVector3Array( -87.4001, 0.400002, -305.2, -98.2001, 0.400002, -305.2, -98.2001, 0.400002, -295.9, -87.4001, 0.400002, -305.2, -98.2001, 0.400002, -295.9, -98.2001, 0.400002, -286.3, -76.6001, 0.400002, -305.2, -87.4001, 0.400002, -305.2, -98.2001, 0.400002, -286.3, -98.2001, 0.400002, -276.7, -56.5001, 1.2, -267.1, -56.5001, 0.400002, -267.7, -65.8001, 0.400002, -305.2, -76.6001, 0.400002, -305.2, -98.2001, 0.400002, -276.7, -98.2001, 0.400002, -267.1, -59.9751, 0.400002, -267.1, -56.5001, 0.400002, -267.7, -54.7001, 0.400002, -267.7, -55.0001, 0.400002, -305.2, -65.8001, 0.400002, -305.2, -48.4001, 0.400002, -305.2, -55.0001, 0.400002, -305.2, -54.7001, 0.400002, -267.7, -48.1001, 0.400002, -267.7, 6.49995, 0.400002, -267.7, 6.79994, 0.400002, -305.2, -0.10006, 0.400002, -305.2, -0.10006, 0.400002, -267.7, 54.7999, 0.400002, -267.7, 55.0999, 0.400002, -305.2, 48.2, 0.400002, -305.2, 47.8999, 0.400002, -267.7, -13.9001, 0.400002, -267.7, -7.00006, 0.400002, -267.7, -7.00006, 0.400002, -305.2, -13.9001, 0.400002, -305.2, 47.8999, 0.400002, -267.7, 48.2, 0.400002, -305.2, 41.2999, 0.400002, -305.2, 40.9999, 0.400002, -267.7, -13.9001, 0.400002, -305.2, -20.8001, 0.400002, -305.2, -20.8001, 0.400002, -267.7, -13.9001, 0.400002, -267.7, 40.9999, 0.400002, -267.7, 41.2999, 0.400002, -305.2, 34.3999, 0.400002, -305.2, 34.0999, 0.400002, -267.7, -7.00006, 0.400002, -267.7, -0.10006, 0.400002, -267.7, -0.10006, 0.400002, -305.2, -7.00006, 0.400002, -305.2, 34.0999, 0.400002, -267.7, 34.3999, 0.400002, -305.2, 27.4999, 0.400002, -305.2, 27.1999, 0.400002, -267.7, -27.4001, 0.400002, -267.7, -20.8001, 0.400002, -267.7, -20.8001, 0.400002, -305.2, -27.7001, 0.400002, -305.2, 27.1999, 0.400002, -267.7, 27.4999, 0.400002, -305.2, 20.5999, 0.400002, -305.2, 20.2999, 0.400002, -267.7, -34.3001, 0.400002, -267.7, -27.4001, 0.400002, -267.7, -27.7001, 0.400002, -305.2, -34.6001, 0.400002, -305.2, 20.2999, 0.400002, -267.7, 20.5999, 0.400002, -305.2, 13.6999, 0.400002, -305.2, 13.3999, 0.400002, -267.7, -41.2001, 0.400002, -267.7, -34.3001, 0.400002, -267.7, -34.6001, 0.400002, -305.2, -41.5001, 0.400002, -305.2, 13.3999, 0.400002, -267.7, 13.6999, 0.400002, -305.2, 6.79994, 0.400002, -305.2, 6.49995, 0.400002, -267.7, -48.1001, 0.400002, -267.7, -41.2001, 0.400002, -267.7, -41.5001, 0.400002, -305.2, -48.4001, 0.400002, -305.2, 98.2999, 0.400002, -295.9, 98.2999, 0.400002, -305.2, 87.4999, 0.400002, -305.2, 98.2999, 0.400002, -286.3, 98.2999, 0.400002, -295.9, 87.4999, 0.400002, -305.2, 98.2999, 0.400002, -286.3, 87.4999, 0.400002, -305.2, 76.7, 0.400002, -305.2, 98.2999, 0.400002, -276.7, 65.8999, 0.400002, -305.2, 56.5999, 0.400002, -267.7, 56.5999, 1.2, -267.1, 98.2999, 0.400002, -267.1, 98.2999, 0.400002, -276.7, 76.7, 0.400002, -305.2, 60.075, 0.400002, -267.1, 55.0999, 0.400002, -305.2, 54.7999, 0.400002, -267.7, 56.5999, 0.400002, -267.7, 65.8999, 0.400002, -305.2, -56.5001, 1.2, -227.5, -54.1001, 1.8, -227.5, -54.1001, 1.8, -266.5, -56.5001, 1.2, -266.5, -98.2001, 0.400002, -257.2, -98.2001, 0.400002, -247, -59.7078, 0.400002, -229, -59.9751, 0.400002, -265.725, -56.5001, 1.2, -227.5, -98.2001, 0.400002, -247, -98.2001, 0.400002, -237.1, -59.9751, 0.400002, -228.3, -59.7078, 0.400002, -229, -98.2001, 0.400002, -226.9, -56.5001, 1.2, -226.9, -56.5001, 1.2, -227.5, -98.2001, 0.400002, -237.1, -59.9751, 0.400002, -228.3, -56.5001, 1.2, -266.5, -56.5001, 1.2, -267.1, -98.2001, 0.400002, -267.1, -98.2001, 0.400002, -257.2, -59.9751, 0.400002, -265.725, -59.9751, 0.400002, -267.1, 56.5999, 1.2, -266.5, 54.2, 1.8, -266.5, 54.2, 1.8, -227.5, 56.5999, 1.2, -227.5, 98.2999, 0.400002, -237.1, 98.2999, 0.400002, -247, 59.8076, 0.400002, -265, 60.075, 0.400002, -228.3, 98.2999, 0.400002, -247, 98.2999, 0.400002, -257.2, 56.5999, 1.2, -266.5, 59.8076, 0.400002, -265, 60.075, 0.400002, -265.725, 56.5999, 1.2, -227.5, 56.5999, 1.2, -226.9, 98.2999, 0.400002, -226.9, 98.2999, 0.400002, -237.1, 60.075, 0.400002, -228.3, 98.2999, 0.400002, -267.1, 56.5999, 1.2, -267.1, 56.5999, 1.2, -266.5, 98.2999, 0.400002, -257.2, 60.075, 0.400002, -267.1, 60.075, 0.400002, -265.725, -19.9001, 10.4, -227.5, -19.6001, 10.4, -226.9, -18.4001, 10.4, -226.9, -18.4001, 10.4, -265, -19.9001, 10.4, -265.3, -19.9001, 10.4, -266.5, -28.6001, 8.2, -266.5, -18.4001, 10.4, -265, -19.9001, 10.4, -265.3, -28.6001, 8.2, -266.5, -37.0001, 6.2, -266.5, -35.3092, 6.4, -266.364, -20.091, 10.4, -265.136, -37.0001, 6.2, -227.5, -28.6001, 8.2, -227.5, -18.4001, 10.4, -265, -19.9501, 10.4, -261.875, -22.5728, 9.8, -249.659, -18.4001, 10.4, -265, -37.0001, 6.2, -266.5, -45.7001, 4, -266.5, -20.1063, 10.4, -265.094, -20.091, 10.4, -265.136, -35.3092, 6.4, -266.364, -18.4001, 10.4, -265, -45.7001, 4, -266.5, -54.1001, 1.8, -266.5, -45.7001, 4, -227.5, -37.0001, 6.2, -227.5, -19.9501, 10.4, -261.875, -20.1063, 10.4, -265.094, -54.1001, 1.8, -266.5, -54.1001, 1.8, -227.5, -45.7001, 4, -227.5, -28.6001, 8.2, -227.5, -19.9001, 10.4, -227.5, -18.4001, 10.4, -265, -22.5728, 9.8, -249.659, 18.1999, 10.4, -265, 17.8999, 10.4, -266.5, 8.89994, 10.4, -266.5, -9.10006, 10.4, -266.5, -18.1001, 10.4, -266.5, -18.4001, 10.4, -265, 18.1999, 10.4, -265, 8.89994, 10.4, -266.5, -0.10006, 10.4, -266.5, -0.10006, 10.4, -266.5, -9.10006, 10.4, -266.5, -18.4001, 10.4, -265, -18.4001, 10.4, -226.9, -18.1001, 10.4, -226, 17.8999, 10.4, -226, -18.4001, 10.4, -265, -18.4001, 10.4, -226.9, 17.8999, 10.4, -226, 18.1999, 10.4, -226.9, 18.1999, 10.4, -265, -0.10006, 10.4, -266.5, 18.1999, 10.4, -226.9, 19.6999, 10.4, -226.9, 19.9999, 10.4, -227.5, 19.6999, 10.4, -265, 18.1999, 10.4, -265, 28.3999, 8.2, -266.5, 19.9999, 10.4, -266.5, 19.6999, 10.4, -265, 37.0999, 6.2, -266.5, 28.3999, 8.2, -266.5, 19.6999, 10.4, -265, 45.4999, 4, -266.5, 37.0999, 6.2, -266.5, 19.6999, 10.4, -265, 54.2, 1.8, -266.5, 45.4999, 4, -266.5, 19.6999, 10.4, -265, 37.0999, 6.2, -227.5, 45.4999, 4, -227.5, 38.579, 5.6, -229.582, 45.4999, 4, -227.5, 54.2, 1.8, -227.5, 54.2, 1.8, -266.5, 19.6999, 10.4, -265, 28.3999, 8.2, -227.5, 37.0999, 6.2, -227.5, 19.6999, 10.4, -265, 19.9999, 10.4, -227.5, 28.3999, 8.2, -227.5, -19.3001, 0.400002, -237.4, -19.3001, 0.400002, -227.8, -9.70006, 0.400002, -227.8, -9.70006, 0.400002, -266.2, -19.3001, 0.400002, -266.2, -19.3001, 0.400002, -256.6, 9.49995, 0.400002, -227.8, 19.3999, 0.400002, -227.8, 19.3999, 0.400002, -237.4, 19.3999, 0.400002, -256.6, 19.3999, 0.400002, -266.2, 9.49995, 0.400002, -266.2, -19.3001, 0.400002, -247, -19.3001, 0.400002, -237.4, -9.70006, 0.400002, -227.8, -0.10006, 0.400002, -227.8, -0.10006, 0.400002, -266.2, -9.70006, 0.400002, -266.2, -19.3001, 0.400002, -256.6, -19.3001, 0.400002, -247, 9.49995, 0.400002, -227.8, 19.3999, 0.400002, -237.4, 19.3999, 0.400002, -247, 19.3999, 0.400002, -247, 19.3999, 0.400002, -256.6, 9.49995, 0.400002, -266.2, -0.10006, 0.400002, -266.2, -19.3001, 0.400002, -247, -0.10006, 0.400002, -227.8, 9.49995, 0.400002, -227.8, 19.3999, 0.400002, -247, 9.49995, 0.400002, -266.2, -43.3001, 0.400002, -265.9, -50.5001, 0.400002, -265.9, -50.5001, 0.400002, -256.6, -20.8001, 0.400002, -256.6, -20.8001, 0.400002, -265.9, -28.3001, 0.400002, -265.9, -50.5001, 0.400002, -237.7, -50.5001, 0.400002, -228.1, -43.3001, 0.400002, -228.1, -28.3001, 0.400002, -228.1, -20.8001, 0.400002, -228.1, -20.8001, 0.400002, -237.7, -35.8001, 0.400002, -265.9, -43.3001, 0.400002, -265.9, -50.5001, 0.400002, -256.6, -50.5001, 0.400002, -247, -50.5001, 0.400002, -237.7, -43.3001, 0.400002, -228.1, -35.8001, 0.400002, -228.1, -20.8001, 0.400002, -256.6, -28.3001, 0.400002, -265.9, -35.8001, 0.400002, -265.9, -20.8001, 0.400002, -247, -35.8001, 0.400002, -228.1, -28.3001, 0.400002, -228.1, -20.8001, 0.400002, -237.7, -50.5001, 0.400002, -247, -50.5001, 0.400002, -237.7, -35.8001, 0.400002, -228.1, -20.8001, 0.400002, -237.7, -20.8001, 0.400002, -247, -35.8001, 0.400002, -265.9, 28.0999, 0.400002, -265.9, 20.8999, 0.400002, -265.9, 20.8999, 0.400002, -256.6, 50.5999, 0.400002, -256.6, 50.5999, 0.400002, -265.9, 43.0999, 0.400002, -265.9, 20.8999, 0.400002, -237.7, 20.8999, 0.400002, -228.1, 28.0999, 0.400002, -228.1, 43.0999, 0.400002, -228.1, 50.5999, 0.400002, -228.1, 50.5999, 0.400002, -237.7, 35.5999, 0.400002, -265.9, 28.0999, 0.400002, -265.9, 20.8999, 0.400002, -256.6, 20.8999, 0.400002, -247, 20.8999, 0.400002, -237.7, 28.0999, 0.400002, -228.1, 35.5999, 0.400002, -228.1, 50.5999, 0.400002, -256.6, 43.0999, 0.400002, -265.9, 35.5999, 0.400002, -265.9, 50.5999, 0.400002, -247, 35.5999, 0.400002, -228.1, 43.0999, 0.400002, -228.1, 50.5999, 0.400002, -237.7, 20.8999, 0.400002, -247, 20.8999, 0.400002, -237.7, 35.5999, 0.400002, -228.1, 50.5999, 0.400002, -237.7, 50.5999, 0.400002, -247, 35.5999, 0.400002, -265.9, -56.5001, 0.400002, -187.9, -54.1001, 0.400002, -187.9, -54.1001, 0.400002, -226.3, -56.5001, 0.400002, -226.3, -98.2001, 0.400002, -217, -98.2001, 0.400002, -207.1, -56.5001, 0.400002, -187.9, -98.2001, 0.400002, -207.1, -98.2001, 0.400002, -197.2, -98.2001, 0.400002, -187.3, -56.5001, 1.2, -187.3, -56.5001, 0.400002, -187.9, -98.2001, 0.400002, -197.2, -59.9751, 0.400002, -187.3, -56.5001, 0.400002, -226.3, -56.5001, 1.2, -226.9, -98.2001, 0.400002, -226.9, -98.2001, 0.400002, -217, 56.5999, 0.400002, -226.3, 54.2, 0.400002, -226.3, 54.2, 0.400002, -187.9, 56.5999, 0.400002, -187.9, 98.2999, 0.400002, -197.2, 98.2999, 0.400002, -207.1, 98.2999, 0.400002, -207.1, 98.2999, 0.400002, -217, 56.5999, 0.400002, -226.3, 56.5999, 0.400002, -187.9, 56.5999, 1.2, -187.3, 98.2999, 0.400002, -187.3, 98.2999, 0.400002, -197.2, 60.075, 0.400002, -187.3, 98.2999, 0.400002, -226.9, 56.5999, 1.2, -226.9, 56.5999, 0.400002, -226.3, 98.2999, 0.400002, -217, -47.5001, 0.400002, -226.3, -54.1001, 0.400002, -226.3, -54.1001, 0.400002, -187.9, -47.5001, 0.400002, -187.9, -20.5001, 0.400002, -187.9, -13.6001, 0.400002, -187.9, -13.6001, 0.400002, -226.3, -20.5001, 0.400002, -226.3, 47.2999, 0.400002, -187.9, 54.2, 0.400002, -187.9, 54.2, 0.400002, -226.3, 47.2999, 0.400002, -226.3, -40.6001, 0.400002, -226.3, -47.5001, 0.400002, -226.3, -47.5001, 0.400002, -187.9, -40.6001, 0.400002, -187.9, 40.3999, 0.400002, -187.9, 47.2999, 0.400002, -187.9, 47.2999, 0.400002, -226.3, 40.3999, 0.400002, -226.3, -34.0001, 0.400002, -226.3, -40.6001, 0.400002, -226.3, -40.6001, 0.400002, -187.9, -34.0001, 0.400002, -187.9, 33.4999, 0.400002, -187.9, 40.3999, 0.400002, -187.9, 40.3999, 0.400002, -226.3, 33.4999, 0.400002, -226.3, -7.00006, 0.400002, -226.3, -13.6001, 0.400002, -226.3, -13.6001, 0.400002, -187.9, -7.00006, 0.400002, -187.9, 26.8999, 0.400002, -187.9, 33.4999, 0.400002, -187.9, 33.4999, 0.400002, -226.3, 26.8999, 0.400002, -226.3, -27.1001, 0.400002, -187.9, -20.5001, 0.400002, -187.9, -20.5001, 0.400002, -226.3, -27.1001, 0.400002, -226.3, 19.9999, 0.400002, -187.9, 26.8999, 0.400002, -187.9, 26.8999, 0.400002, -226.3, 19.9999, 0.400002, -226.3, -27.1001, 0.400002, -226.3, -34.0001, 0.400002, -226.3, -34.0001, 0.400002, -187.9, -27.1001, 0.400002, -187.9, 13.3999, 0.400002, -187.9, 19.9999, 0.400002, -187.9, 19.9999, 0.400002, -226.3, 13.3999, 0.400002, -226.3, 6.49995, 0.400002, -226.3, -0.10006, 0.400002, -226.3, -0.10006, 0.400002, -187.9, 6.49995, 0.400002, -187.9, 6.49995, 0.400002, -187.9, 13.3999, 0.400002, -187.9, 13.3999, 0.400002, -226.3, 6.49995, 0.400002, -226.3, -7.00006, 0.400002, -187.9, -0.10006, 0.400002, -187.9, -0.10006, 0.400002, -226.3, -7.00006, 0.400002, -226.3, -18.4001, 10.4, -225.1, -19.6001, 10.4, -225.1, -19.6001, 10.4, -216.1, -19.6001, 10.4, -198.1, -19.6001, 10.4, -189.1, -18.4001, 10.4, -189.1, 18.1999, 10.4, -189.1, 19.6999, 10.4, -189.1, 19.6999, 10.4, -198.1, 19.6999, 10.4, -216.1, 19.6999, 10.4, -225.1, 18.1999, 10.4, -225.1, -18.1001, 10.4, -226, -18.4001, 10.4, -225.1, -19.6001, 10.4, -216.1, -19.6001, 10.4, -207.1, 19.6999, 10.4, -216.1, 18.1999, 10.4, -225.1, 17.8999, 10.4, -226, 19.6999, 10.4, -207.1, -19.6001, 10.4, -198.1, -18.4001, 10.4, -189.1, -18.1001, 10.4, -187.9, -19.6001, 10.4, -207.1, 17.8999, 10.4, -187.9, 18.1999, 10.4, -189.1, 19.6999, 10.4, -198.1, 19.6999, 10.4, -207.1, -18.1001, 10.4, -187.9, 17.8999, 10.4, -187.9, 19.6999, 10.4, -207.1, 17.8999, 10.4, -226, -18.1001, 10.4, -226, -19.6001, 10.4, -207.1, -18.1001, 10.4, -148.6, -18.1001, 10.4, -147.4, -9.10006, 10.4, -147.4, 8.89994, 10.4, -147.4, 17.8999, 10.4, -147.4, 17.8999, 10.4, -148.6, -19.3001, 10.4, -148.9, -18.1001, 10.4, -148.6, -9.10006, 10.4, -147.4, -0.10006, 10.4, -147.4, 8.89994, 10.4, -147.4, 17.8999, 10.4, -148.6, 19.3999, 10.4, -148.9, -0.10006, 10.4, -147.4, -18.4001, 10.4, -187, -19.6001, 10.4, -187, -19.3001, 10.4, -148.9, 19.3999, 10.4, -148.9, 19.6999, 10.4, -187, 18.1999, 10.4, -187, 18.1999, 10.4, -187, 17.8999, 10.4, -187.9, -18.1001, 10.4, -187.9, 18.1999, 10.4, -187, -18.1001, 10.4, -187.9, -18.4001, 10.4, -187, -19.3001, 10.4, -148.9, -0.10006, 10.4, -147.4, 19.3999, 10.4, -148.9, -56.5001, 1.2, -147.4, -54.4001, 1.8, -147.4, -54.4001, 1.8, -186.7, -56.5001, 1.2, -186.7, -98.2001, 0.400002, -167.2, -98.2001, 0.400002, -157, -59.9751, 0.400002, -148.2, -59.7078, 0.400002, -185.2, -56.5001, 1.2, -186.7, -98.2001, 0.400002, -177.4, -98.2001, 0.400002, -167.2, -59.7078, 0.400002, -185.2, -59.9751, 0.400002, -185.925, -98.2001, 0.400002, -146.8, -56.5001, 1.2, -146.8, -56.5001, 1.2, -147.4, -98.2001, 0.400002, -157, -59.9751, 0.400002, -148.2, -56.5001, 1.2, -186.7, -56.5001, 1.2, -187.3, -98.2001, 0.400002, -187.3, -98.2001, 0.400002, -177.4, -59.9751, 0.400002, -185.925, -59.9751, 0.400002, -187.3, 56.5999, 1.2, -186.7, 54.4999, 1.8, -186.7, 54.4999, 1.8, -147.4, 56.5999, 1.2, -147.4, 98.2999, 0.400002, -157, 98.2999, 0.400002, -167.2, 59.8076, 0.400002, -185.2, 60.075, 0.400002, -148.2, 98.2999, 0.400002, -167.2, 98.2999, 0.400002, -177.4, 56.5999, 1.2, -186.7, 59.8076, 0.400002, -185.2, 60.075, 0.400002, -185.925, 56.5999, 1.2, -147.4, 56.5999, 1.2, -146.8, 98.2999, 0.400002, -146.8, 98.2999, 0.400002, -157, 60.075, 0.400002, -148.2, 98.2999, 0.400002, -187.3, 56.5999, 1.2, -187.3, 56.5999, 1.2, -186.7, 98.2999, 0.400002, -177.4, 60.075, 0.400002, -187.3, 60.075, 0.400002, -185.925, -28.6001, 8.2, -147.4, -19.9001, 10.4, -147.4, -19.9001, 10.4, -148.6, -28.6001, 8.2, -147.4, -19.9001, 10.4, -148.6, -19.3001, 10.4, -148.9, -37.3001, 6, -147.4, -19.3001, 10.4, -148.9, -28.3001, 8.2, -186.7, -37.0001, 6.2, -186.7, -46.0001, 3.8, -147.4, -37.3001, 6, -147.4, -19.3001, 10.4, -148.9, -54.4001, 1.8, -147.4, -46.0001, 3.8, -147.4, -19.3001, 10.4, -148.9, -37.0001, 6.2, -186.7, -45.7001, 4, -186.7, -47.2131, 3.4, -179.865, -22.5909, 9.8, -150.376, -44.2116, 4.4, -175.608, -19.3001, 10.4, -148.9, -19.6001, 10.4, -187, -28.3001, 8.2, -186.7, -45.7001, 4, -186.7, -54.4001, 1.8, -186.7, -54.4001, 1.8, -147.4, -47.2131, 3.4, -179.865, 19.9999, 10.4, -148.6, 19.9999, 10.4, -147.4, 28.3999, 8.2, -147.4, 19.3999, 10.4, -148.9, 19.9999, 10.4, -148.6, 28.3999, 8.2, -147.4, 37.0999, 6.2, -147.4, 36.7999, 6.2, -186.7, 28.0999, 8.4, -186.7, 19.3999, 10.4, -148.9, 19.3999, 10.4, -148.9, 37.0999, 6.2, -147.4, 45.7999, 4, -147.4, 19.3999, 10.4, -148.9, 45.7999, 4, -147.4, 54.4999, 1.8, -147.4, 45.4999, 4, -186.7, 36.7999, 6.2, -186.7, 28.0999, 8.4, -186.7, 19.6999, 10.4, -187, 19.3999, 10.4, -148.9, 54.4999, 1.8, -147.4, 54.4999, 1.8, -186.7, 45.4999, 4, -186.7, -43.3001, 0.400002, -186.1, -50.5001, 0.400002, -186.1, -50.5001, 0.400002, -176.8, -20.8001, 0.400002, -176.8, -20.8001, 0.400002, -186.1, -28.3001, 0.400002, -186.1, -50.5001, 0.400002, -157.6, -50.5001, 0.400002, -148, -43.3001, 0.400002, -148, -28.3001, 0.400002, -148, -20.8001, 0.400002, -148, -20.8001, 0.400002, -157.6, -35.8001, 0.400002, -186.1, -43.3001, 0.400002, -186.1, -50.5001, 0.400002, -176.8, -50.5001, 0.400002, -167.2, -50.5001, 0.400002, -157.6, -43.3001, 0.400002, -148, -35.8001, 0.400002, -148, -20.8001, 0.400002, -176.8, -28.3001, 0.400002, -186.1, -35.8001, 0.400002, -186.1, -20.8001, 0.400002, -167.2, -35.8001, 0.400002, -148, -28.3001, 0.400002, -148, -20.8001, 0.400002, -157.6, -50.5001, 0.400002, -167.2, -50.5001, 0.400002, -157.6, -35.8001, 0.400002, -148, -20.8001, 0.400002, -157.6, -20.8001, 0.400002, -167.2, -35.8001, 0.400002, -186.1, -19.3001, 0.400002, -157.3, -19.3001, 0.400002, -147.7, -9.70006, 0.400002, -147.7, -9.70006, 0.400002, -186.1, -19.3001, 0.400002, -186.1, -19.3001, 0.400002, -176.5, 9.49995, 0.400002, -147.7, 19.3999, 0.400002, -147.7, 19.3999, 0.400002, -157.3, 19.3999, 0.400002, -176.5, 19.3999, 0.400002, -186.1, 9.49995, 0.400002, -186.1, -19.3001, 0.400002, -166.9, -19.3001, 0.400002, -157.3, -9.70006, 0.400002, -147.7, -0.10006, 0.400002, -147.7, -0.10006, 0.400002, -186.1, -9.70006, 0.400002, -186.1, -19.3001, 0.400002, -176.5, -19.3001, 0.400002, -166.9, 9.49995, 0.400002, -147.7, 19.3999, 0.400002, -157.3, 19.3999, 0.400002, -166.9, 19.3999, 0.400002, -166.9, 19.3999, 0.400002, -176.5, 9.49995, 0.400002, -186.1, -0.10006, 0.400002, -186.1, -19.3001, 0.400002, -166.9, -0.10006, 0.400002, -147.7, 9.49995, 0.400002, -147.7, 19.3999, 0.400002, -166.9, 9.49995, 0.400002, -186.1, 28.0999, 0.400002, -186.1, 20.8999, 0.400002, -186.1, 20.8999, 0.400002, -176.8, 50.5999, 0.400002, -176.8, 50.5999, 0.400002, -186.1, 43.0999, 0.400002, -186.1, 20.8999, 0.400002, -157.6, 20.8999, 0.400002, -148, 28.0999, 0.400002, -148, 43.0999, 0.400002, -148, 50.5999, 0.400002, -148, 50.5999, 0.400002, -157.6, 35.5999, 0.400002, -186.1, 28.0999, 0.400002, -186.1, 20.8999, 0.400002, -176.8, 20.8999, 0.400002, -167.2, 20.8999, 0.400002, -157.6, 28.0999, 0.400002, -148, 35.5999, 0.400002, -148, 50.5999, 0.400002, -176.8, 43.0999, 0.400002, -186.1, 35.5999, 0.400002, -186.1, 50.5999, 0.400002, -167.2, 35.5999, 0.400002, -148, 43.0999, 0.400002, -148, 50.5999, 0.400002, -157.6, 20.8999, 0.400002, -167.2, 20.8999, 0.400002, -157.6, 35.5999, 0.400002, -148, 50.5999, 0.400002, -157.6, 50.5999, 0.400002, -167.2, 35.5999, 0.400002, -186.1, -98.2001, 0.400002, -118.3, -98.2001, 0.400002, -108.7, -87.4001, 0.400002, -108.7, -98.2001, 0.400002, -127.9, -98.2001, 0.400002, -118.3, -87.4001, 0.400002, -108.7, -98.2001, 0.400002, -127.9, -87.4001, 0.400002, -108.7, -76.6001, 0.400002, -108.7, -98.2001, 0.400002, -137.5, -65.8001, 0.400002, -108.7, -56.5001, 0.400002, -146.2, -56.5001, 1.2, -146.8, -98.2001, 0.400002, -146.8, -98.2001, 0.400002, -137.5, -76.6001, 0.400002, -108.7, -58.5878, 0.400002, -144.993, -55.0001, 0.400002, -108.7, -54.7001, 0.400002, -146.2, -56.5001, 0.400002, -146.2, -65.8001, 0.400002, -108.7, 87.4999, 0.400002, -108.7, 98.2999, 0.400002, -108.7, 98.2999, 0.400002, -118.3, 87.4999, 0.400002, -108.7, 98.2999, 0.400002, -118.3, 98.2999, 0.400002, -127.9, 76.7, 0.400002, -108.7, 87.4999, 0.400002, -108.7, 98.2999, 0.400002, -127.9, 98.2999, 0.400002, -137.5, 56.5999, 1.2, -146.8, 56.5999, 0.400002, -146.2, 65.8999, 0.400002, -108.7, 76.7, 0.400002, -108.7, 98.2999, 0.400002, -137.5, 98.2999, 0.400002, -146.8, 58.3699, 0.400002, -145.03, 56.5999, 0.400002, -146.2, 54.7999, 0.400002, -146.2, 55.0999, 0.400002, -108.7, 65.8999, 0.400002, -108.7, -54.7001, 0.400002, -146.2, -55.0001, 0.400002, -108.7, -48.4001, 0.400002, -108.7, -48.1001, 0.400002, -146.2, -0.10006, 0.400002, -108.7, 6.79994, 0.400002, -108.7, 6.49995, 0.400002, -146.2, -0.10006, 0.400002, -146.2, 48.2, 0.400002, -108.7, 55.0999, 0.400002, -108.7, 54.7999, 0.400002, -146.2, 47.8999, 0.400002, -146.2, -13.9001, 0.400002, -108.7, -7.00006, 0.400002, -108.7, -7.00006, 0.400002, -146.2, -13.9001, 0.400002, -146.2, 41.2999, 0.400002, -108.7, 48.2, 0.400002, -108.7, 47.8999, 0.400002, -146.2, 40.9999, 0.400002, -146.2, -13.9001, 0.400002, -146.2, -20.8001, 0.400002, -146.2, -20.8001, 0.400002, -108.7, -13.9001, 0.400002, -108.7, 34.3999, 0.400002, -108.7, 41.2999, 0.400002, -108.7, 40.9999, 0.400002, -146.2, 34.0999, 0.400002, -146.2, -7.00006, 0.400002, -108.7, -0.10006, 0.400002, -108.7, -0.10006, 0.400002, -146.2, -7.00006, 0.400002, -146.2, 27.4999, 0.400002, -108.7, 34.3999, 0.400002, -108.7, 34.0999, 0.400002, -146.2, 27.1999, 0.400002, -146.2, -20.8001, 0.400002, -108.7, -20.8001, 0.400002, -146.2, -27.4001, 0.400002, -146.2, -27.7001, 0.400002, -108.7, 20.5999, 0.400002, -108.7, 27.4999, 0.400002, -108.7, 27.1999, 0.400002, -146.2, 20.2999, 0.400002, -146.2, -27.7001, 0.400002, -108.7, -27.4001, 0.400002, -146.2, -34.3001, 0.400002, -146.2, -34.6001, 0.400002, -108.7, 13.6999, 0.400002, -108.7, 20.5999, 0.400002, -108.7, 20.2999, 0.400002, -146.2, 13.3999, 0.400002, -146.2, -34.6001, 0.400002, -108.7, -34.3001, 0.400002, -146.2, -41.2001, 0.400002, -146.2, -41.5001, 0.400002, -108.7, 6.79994, 0.400002, -108.7, 13.6999, 0.400002, -108.7, 13.3999, 0.400002, -146.2, 6.49995, 0.400002, -146.2, -41.5001, 0.400002, -108.7, -41.2001, 0.400002, -146.2, -48.1001, 0.400002, -146.2, -48.4001, 0.400002, -108.7 )
polygons = [ PoolIntArray( 2, 1, 0 ), PoolIntArray( 5, 4, 3 ), PoolIntArray( 7, 6, 8 ), PoolIntArray( 8, 6, 9 ), PoolIntArray( 10, 16, 11 ), PoolIntArray( 11, 16, 12 ), PoolIntArray( 12, 16, 13 ), PoolIntArray( 13, 16, 14 ), PoolIntArray( 14, 16, 15 ), PoolIntArray( 18, 17, 19 ), PoolIntArray( 19, 17, 20 ), PoolIntArray( 24, 23, 21 ), PoolIntArray( 21, 23, 22 ), PoolIntArray( 28, 27, 25 ), PoolIntArray( 25, 27, 26 ), PoolIntArray( 32, 31, 29 ), PoolIntArray( 29, 31, 30 ), PoolIntArray( 36, 35, 33 ), PoolIntArray( 33, 35, 34 ), PoolIntArray( 40, 39, 37 ), PoolIntArray( 37, 39, 38 ), PoolIntArray( 44, 43, 41 ), PoolIntArray( 41, 43, 42 ), PoolIntArray( 48, 47, 45 ), PoolIntArray( 45, 47, 46 ), PoolIntArray( 52, 51, 49 ), PoolIntArray( 49, 51, 50 ), PoolIntArray( 56, 55, 53 ), PoolIntArray( 53, 55, 54 ), PoolIntArray( 58, 57, 59 ), PoolIntArray( 59, 57, 60 ), PoolIntArray( 64, 63, 61 ), PoolIntArray( 61, 63, 62 ), PoolIntArray( 68, 67, 65 ), PoolIntArray( 65, 67, 66 ), PoolIntArray( 72, 71, 69 ), PoolIntArray( 69, 71, 70 ), PoolIntArray( 76, 75, 73 ), PoolIntArray( 73, 75, 74 ), PoolIntArray( 80, 79, 77 ), PoolIntArray( 77, 79, 78 ), PoolIntArray( 84, 83, 81 ), PoolIntArray( 81, 83, 82 ), PoolIntArray( 86, 85, 87 ), PoolIntArray( 90, 89, 88 ), PoolIntArray( 92, 91, 93 ), PoolIntArray( 93, 91, 94 ), PoolIntArray( 97, 96, 101 ), PoolIntArray( 101, 96, 95 ), PoolIntArray( 101, 95, 100 ), PoolIntArray( 101, 100, 99 ), PoolIntArray( 101, 99, 98 ), PoolIntArray( 103, 102, 104 ), PoolIntArray( 104, 102, 105 ), PoolIntArray( 106, 112, 107 ), PoolIntArray( 107, 112, 108 ), PoolIntArray( 108, 112, 109 ), PoolIntArray( 109, 112, 113 ), PoolIntArray( 113, 112, 111 ), PoolIntArray( 113, 111, 110 ), PoolIntArray( 114, 117, 118 ), PoolIntArray( 118, 117, 116 ), PoolIntArray( 118, 116, 115 ), PoolIntArray( 121, 120, 123 ), PoolIntArray( 123, 120, 119 ), PoolIntArray( 123, 119, 122 ), PoolIntArray( 125, 124, 129 ), PoolIntArray( 129, 124, 128 ), PoolIntArray( 129, 128, 126 ), PoolIntArray( 126, 128, 127 ), PoolIntArray( 130, 136, 131 ), PoolIntArray( 131, 136, 132 ), PoolIntArray( 132, 136, 133 ), PoolIntArray( 133, 136, 137 ), PoolIntArray( 137, 136, 135 ), PoolIntArray( 137, 135, 134 ), PoolIntArray( 140, 142, 141 ), PoolIntArray( 141, 142, 139 ), PoolIntArray( 141, 139, 138 ), PoolIntArray( 143, 147, 144 ), PoolIntArray( 144, 147, 145 ), PoolIntArray( 145, 147, 146 ), PoolIntArray( 149, 152, 150 ), PoolIntArray( 150, 152, 153 ), PoolIntArray( 153, 152, 148 ), PoolIntArray( 153, 148, 151 ), PoolIntArray( 155, 154, 156 ), PoolIntArray( 156, 154, 157 ), PoolIntArray( 160, 159, 158 ), PoolIntArray( 161, 166, 162 ), PoolIntArray( 162, 166, 163 ), PoolIntArray( 163, 166, 165 ), PoolIntArray( 163, 165, 164 ), PoolIntArray( 169, 171, 170 ), PoolIntArray( 170, 171, 168 ), PoolIntArray( 170, 168, 167 ), PoolIntArray( 172, 175, 176 ), PoolIntArray( 176, 175, 177 ), PoolIntArray( 177, 175, 173 ), PoolIntArray( 173, 175, 174 ), PoolIntArray( 178, 183, 184 ), PoolIntArray( 184, 183, 179 ), PoolIntArray( 179, 183, 180 ), PoolIntArray( 180, 183, 182 ), PoolIntArray( 180, 182, 181 ), PoolIntArray( 187, 186, 185 ), PoolIntArray( 188, 191, 189 ), PoolIntArray( 189, 191, 190 ), PoolIntArray( 194, 193, 192 ), PoolIntArray( 197, 196, 195 ), PoolIntArray( 200, 199, 198 ), PoolIntArray( 203, 202, 201 ), PoolIntArray( 206, 205, 204 ), PoolIntArray( 212, 211, 207 ), PoolIntArray( 207, 211, 210 ), PoolIntArray( 207, 210, 209 ), PoolIntArray( 207, 209, 208 ), PoolIntArray( 214, 213, 215 ), PoolIntArray( 215, 213, 216 ), PoolIntArray( 216, 213, 217 ), PoolIntArray( 220, 219, 218 ), PoolIntArray( 223, 222, 221 ), PoolIntArray( 226, 225, 224 ), PoolIntArray( 230, 232, 231 ), PoolIntArray( 231, 228, 227 ), PoolIntArray( 228, 232, 229 ), PoolIntArray( 229, 232, 230 ), PoolIntArray( 232, 228, 231 ), PoolIntArray( 235, 234, 233 ), PoolIntArray( 238, 237, 236 ), PoolIntArray( 241, 240, 239 ), PoolIntArray( 244, 243, 242 ), PoolIntArray( 247, 246, 245 ), PoolIntArray( 250, 249, 248 ), PoolIntArray( 253, 252, 251 ), PoolIntArray( 256, 255, 257 ), PoolIntArray( 257, 255, 254 ), PoolIntArray( 259, 258, 260 ), PoolIntArray( 260, 258, 261 ), PoolIntArray( 262, 264, 263 ), PoolIntArray( 267, 266, 265 ), PoolIntArray( 273, 272, 268 ), PoolIntArray( 268, 272, 271 ), PoolIntArray( 268, 271, 270 ), PoolIntArray( 268, 270, 269 ), PoolIntArray( 276, 275, 274 ), PoolIntArray( 279, 278, 277 ), PoolIntArray( 282, 281, 280 ), PoolIntArray( 285, 284, 283 ), PoolIntArray( 287, 286, 288 ), PoolIntArray( 288, 286, 289 ), PoolIntArray( 292, 291, 290 ), PoolIntArray( 294, 293, 295 ), PoolIntArray( 295, 293, 296 ), PoolIntArray( 299, 298, 297 ), PoolIntArray( 301, 300, 302 ), PoolIntArray( 302, 300, 303 ), PoolIntArray( 303, 300, 304 ), PoolIntArray( 304, 300, 305 ), PoolIntArray( 308, 307, 306 ), PoolIntArray( 311, 310, 309 ), PoolIntArray( 314, 313, 312 ), PoolIntArray( 317, 316, 315 ), PoolIntArray( 319, 318, 320 ), PoolIntArray( 320, 318, 321 ), PoolIntArray( 324, 323, 322 ), PoolIntArray( 326, 325, 327 ), PoolIntArray( 327, 325, 328 ), PoolIntArray( 331, 330, 329 ), PoolIntArray( 333, 332, 334 ), PoolIntArray( 334, 332, 335 ), PoolIntArray( 335, 332, 336 ), PoolIntArray( 336, 332, 337 ), PoolIntArray( 339, 338, 340 ), PoolIntArray( 340, 338, 341 ), PoolIntArray( 341, 338, 343 ), PoolIntArray( 341, 343, 342 ), PoolIntArray( 344, 346, 345 ), PoolIntArray( 348, 351, 349 ), PoolIntArray( 349, 351, 347 ), PoolIntArray( 349, 347, 350 ), PoolIntArray( 353, 352, 354 ), PoolIntArray( 354, 352, 355 ), PoolIntArray( 357, 356, 358 ), PoolIntArray( 358, 356, 359 ), PoolIntArray( 359, 356, 361 ), PoolIntArray( 359, 361, 360 ), PoolIntArray( 364, 363, 362 ), PoolIntArray( 366, 365, 369 ), PoolIntArray( 369, 365, 367 ), PoolIntArray( 367, 365, 368 ), PoolIntArray( 371, 370, 372 ), PoolIntArray( 372, 370, 373 ), PoolIntArray( 377, 376, 374 ), PoolIntArray( 374, 376, 375 ), PoolIntArray( 381, 380, 378 ), PoolIntArray( 378, 380, 379 ), PoolIntArray( 385, 384, 382 ), PoolIntArray( 382, 384, 383 ), PoolIntArray( 389, 388, 386 ), PoolIntArray( 386, 388, 387 ), PoolIntArray( 393, 392, 390 ), PoolIntArray( 390, 392, 391 ), PoolIntArray( 397, 396, 394 ), PoolIntArray( 394, 396, 395 ), PoolIntArray( 401, 400, 398 ), PoolIntArray( 398, 400, 399 ), PoolIntArray( 405, 404, 402 ), PoolIntArray( 402, 404, 403 ), PoolIntArray( 409, 408, 406 ), PoolIntArray( 406, 408, 407 ), PoolIntArray( 413, 412, 410 ), PoolIntArray( 410, 412, 411 ), PoolIntArray( 417, 416, 414 ), PoolIntArray( 414, 416, 415 ), PoolIntArray( 421, 420, 418 ), PoolIntArray( 418, 420, 419 ), PoolIntArray( 425, 424, 422 ), PoolIntArray( 422, 424, 423 ), PoolIntArray( 429, 428, 426 ), PoolIntArray( 426, 428, 427 ), PoolIntArray( 433, 432, 430 ), PoolIntArray( 430, 432, 431 ), PoolIntArray( 437, 436, 434 ), PoolIntArray( 434, 436, 435 ), PoolIntArray( 440, 439, 438 ), PoolIntArray( 443, 442, 441 ), PoolIntArray( 446, 445, 444 ), PoolIntArray( 449, 448, 447 ), PoolIntArray( 451, 450, 452 ), PoolIntArray( 452, 450, 453 ), PoolIntArray( 455, 454, 456 ), PoolIntArray( 456, 454, 457 ), PoolIntArray( 459, 458, 460 ), PoolIntArray( 460, 458, 461 ), PoolIntArray( 463, 462, 464 ), PoolIntArray( 464, 462, 465 ), PoolIntArray( 471, 470, 466 ), PoolIntArray( 466, 470, 469 ), PoolIntArray( 466, 469, 468 ), PoolIntArray( 466, 468, 467 ), PoolIntArray( 474, 473, 472 ), PoolIntArray( 477, 476, 475 ), PoolIntArray( 479, 478, 480 ), PoolIntArray( 480, 478, 481 ), PoolIntArray( 483, 482, 484 ), PoolIntArray( 484, 482, 485 ), PoolIntArray( 486, 488, 487 ), PoolIntArray( 491, 490, 489 ), PoolIntArray( 494, 493, 492 ), PoolIntArray( 496, 495, 497 ), PoolIntArray( 497, 495, 498 ), PoolIntArray( 498, 495, 499 ), PoolIntArray( 499, 495, 500 ), PoolIntArray( 504, 503, 508 ), PoolIntArray( 508, 503, 502 ), PoolIntArray( 508, 502, 501 ), PoolIntArray( 508, 501, 507 ), PoolIntArray( 508, 507, 505 ), PoolIntArray( 505, 507, 506 ), PoolIntArray( 509, 512, 513 ), PoolIntArray( 513, 512, 510 ), PoolIntArray( 510, 512, 511 ), PoolIntArray( 516, 515, 518 ), PoolIntArray( 518, 515, 514 ), PoolIntArray( 518, 514, 517 ), PoolIntArray( 520, 519, 524 ), PoolIntArray( 524, 519, 523 ), PoolIntArray( 524, 523, 521 ), PoolIntArray( 521, 523, 522 ), PoolIntArray( 525, 531, 526 ), PoolIntArray( 526, 531, 527 ), PoolIntArray( 527, 531, 528 ), PoolIntArray( 528, 531, 532 ), PoolIntArray( 532, 531, 530 ), PoolIntArray( 532, 530, 529 ), PoolIntArray( 535, 537, 536 ), PoolIntArray( 536, 537, 534 ), PoolIntArray( 536, 534, 533 ), PoolIntArray( 538, 542, 539 ), PoolIntArray( 539, 542, 540 ), PoolIntArray( 540, 542, 541 ), PoolIntArray( 544, 547, 545 ), PoolIntArray( 545, 547, 548 ), PoolIntArray( 548, 547, 543 ), PoolIntArray( 548, 543, 546 ), PoolIntArray( 551, 550, 549 ), PoolIntArray( 553, 552, 554 ), PoolIntArray( 554, 552, 555 ), PoolIntArray( 558, 557, 556 ), PoolIntArray( 561, 560, 559 ), PoolIntArray( 565, 567, 566 ), PoolIntArray( 567, 569, 562 ), PoolIntArray( 562, 569, 563 ), PoolIntArray( 563, 568, 564 ), PoolIntArray( 564, 568, 565 ), PoolIntArray( 565, 569, 567 ), PoolIntArray( 569, 568, 563 ), PoolIntArray( 568, 569, 565 ), PoolIntArray( 572, 571, 570 ), PoolIntArray( 573, 576, 574 ), PoolIntArray( 574, 576, 575 ), PoolIntArray( 579, 578, 577 ), PoolIntArray( 581, 580, 582 ), PoolIntArray( 582, 580, 583 ), PoolIntArray( 586, 585, 584 ), PoolIntArray( 589, 588, 587 ), PoolIntArray( 591, 590, 592 ), PoolIntArray( 592, 590, 594 ), PoolIntArray( 592, 594, 593 ), PoolIntArray( 597, 596, 595 ), PoolIntArray( 600, 599, 598 ), PoolIntArray( 603, 602, 601 ), PoolIntArray( 606, 605, 604 ), PoolIntArray( 609, 608, 607 ), PoolIntArray( 612, 611, 610 ), PoolIntArray( 614, 613, 615 ), PoolIntArray( 615, 613, 616 ), PoolIntArray( 619, 618, 617 ), PoolIntArray( 621, 620, 622 ), PoolIntArray( 622, 620, 623 ), PoolIntArray( 626, 625, 624 ), PoolIntArray( 628, 627, 629 ), PoolIntArray( 629, 627, 630 ), PoolIntArray( 630, 627, 631 ), PoolIntArray( 631, 627, 632 ), PoolIntArray( 635, 634, 633 ), PoolIntArray( 638, 637, 636 ), PoolIntArray( 641, 640, 639 ), PoolIntArray( 644, 643, 642 ), PoolIntArray( 647, 646, 648 ), PoolIntArray( 648, 646, 645 ), PoolIntArray( 650, 649, 651 ), PoolIntArray( 651, 649, 652 ), PoolIntArray( 655, 654, 653 ), PoolIntArray( 658, 657, 656 ), PoolIntArray( 662, 661, 663 ), PoolIntArray( 663, 661, 664 ), PoolIntArray( 664, 661, 659 ), PoolIntArray( 659, 661, 660 ), PoolIntArray( 667, 666, 665 ), PoolIntArray( 670, 669, 668 ), PoolIntArray( 673, 672, 671 ), PoolIntArray( 676, 675, 674 ), PoolIntArray( 678, 677, 679 ), PoolIntArray( 679, 677, 680 ), PoolIntArray( 683, 682, 681 ), PoolIntArray( 685, 684, 686 ), PoolIntArray( 686, 684, 687 ), PoolIntArray( 690, 689, 688 ), PoolIntArray( 692, 691, 693 ), PoolIntArray( 693, 691, 694 ), PoolIntArray( 694, 691, 695 ), PoolIntArray( 695, 691, 696 ), PoolIntArray( 699, 698, 697 ), PoolIntArray( 702, 701, 700 ), PoolIntArray( 704, 703, 705 ), PoolIntArray( 705, 703, 706 ), PoolIntArray( 711, 713, 712 ), PoolIntArray( 712, 713, 707 ), PoolIntArray( 707, 713, 708 ), PoolIntArray( 708, 713, 709 ), PoolIntArray( 709, 713, 710 ), PoolIntArray( 710, 713, 711 ), PoolIntArray( 715, 714, 716 ), PoolIntArray( 716, 714, 717 ), PoolIntArray( 720, 719, 718 ), PoolIntArray( 723, 722, 721 ), PoolIntArray( 725, 724, 726 ), PoolIntArray( 726, 724, 727 ), PoolIntArray( 732, 734, 733 ), PoolIntArray( 733, 734, 728 ), PoolIntArray( 728, 734, 729 ), PoolIntArray( 729, 734, 730 ), PoolIntArray( 730, 734, 731 ), PoolIntArray( 731, 734, 732 ), PoolIntArray( 736, 735, 737 ), PoolIntArray( 737, 735, 738 ), PoolIntArray( 742, 741, 739 ), PoolIntArray( 739, 741, 740 ), PoolIntArray( 746, 745, 743 ), PoolIntArray( 743, 745, 744 ), PoolIntArray( 750, 749, 747 ), PoolIntArray( 747, 749, 748 ), PoolIntArray( 754, 753, 751 ), PoolIntArray( 751, 753, 752 ), PoolIntArray( 758, 757, 755 ), PoolIntArray( 755, 757, 756 ), PoolIntArray( 762, 761, 759 ), PoolIntArray( 759, 761, 760 ), PoolIntArray( 766, 765, 763 ), PoolIntArray( 763, 765, 764 ), PoolIntArray( 770, 769, 767 ), PoolIntArray( 767, 769, 768 ), PoolIntArray( 774, 773, 771 ), PoolIntArray( 771, 773, 772 ), PoolIntArray( 776, 775, 777 ), PoolIntArray( 777, 775, 778 ), PoolIntArray( 782, 781, 779 ), PoolIntArray( 779, 781, 780 ), PoolIntArray( 786, 785, 783 ), PoolIntArray( 783, 785, 784 ), PoolIntArray( 790, 789, 787 ), PoolIntArray( 787, 789, 788 ), PoolIntArray( 794, 793, 791 ), PoolIntArray( 791, 793, 792 ), PoolIntArray( 798, 797, 795 ), PoolIntArray( 795, 797, 796 ), PoolIntArray( 802, 801, 799 ), PoolIntArray( 799, 801, 800 ) ]

[sub_resource type="PlaneMesh" id=3]

[sub_resource type="SpatialMaterial" id=4]
albedo_texture = ExtResource( 1 )
uv1_scale = Vector3( 25, 30, 25 )

[sub_resource type="ConcavePolygonShape" id=5]
data = PoolVector3Array( 1, 0, 1, -1, 0, 1, 1, 0, -1, -1, 0, 1, -1, 0, -1, 1, 0, -1 )

[sub_resource type="CubeMesh" id=6]

[sub_resource type="SpatialMaterial" id=7]
albedo_texture = ExtResource( 2 )
uv1_scale = Vector3( 50, 10, 50 )

[sub_resource type="ConcavePolygonShape" id=8]
data = PoolVector3Array( -1, 1, 1, 1, 1, 1, -1, -1, 1, 1, 1, 1, 1, -1, 1, -1, -1, 1, 1, 1, -1, -1, 1, -1, 1, -1, -1, -1, 1, -1, -1, -1, -1, 1, -1, -1, 1, 1, 1, 1, 1, -1, 1, -1, 1, 1, 1, -1, 1, -1, -1, 1, -1, 1, -1, 1, -1, -1, 1, 1, -1, -1, -1, -1, 1, 1, -1, -1, 1, -1, -1, -1, 1, 1, 1, -1, 1, 1, 1, 1, -1, -1, 1, 1, -1, 1, -1, 1, 1, -1, -1, -1, 1, 1, -1, 1, -1, -1, -1, 1, -1, 1, 1, -1, -1, -1, -1, -1 )

[sub_resource type="PrismMesh" id=9]

[sub_resource type="SpatialMaterial" id=10]
albedo_texture = ExtResource( 2 )
uv1_scale = Vector3( 50, 30, 50 )

[sub_resource type="SpatialMaterial" id=11]
albedo_texture = ExtResource( 2 )

[sub_resource type="SpatialMaterial" id=12]
albedo_texture = ExtResource( 2 )

[sub_resource type="ConcavePolygonShape" id=13]
data = PoolVector3Array( 0, 1, 1, 1, -1, 1, -1, -1, 1, 0, 1, -1, -1, -1, -1, 1, -1, -1, 0, 1, 1, 0, 1, -1, 1, -1, 1, 0, 1, -1, 1, -1, -1, 1, -1, 1, 0, 1, -1, 0, 1, 1, -1, -1, -1, 0, 1, 1, -1, -1, 1, -1, -1, -1, -1, -1, 1, 1, -1, 1, -1, -1, -1, 1, -1, 1, 1, -1, -1, -1, -1, -1 )

[sub_resource type="ConcavePolygonShape" id=14]
data = PoolVector3Array( 0, 1, 1, 1, -1, 1, -1, -1, 1, 0, 1, -1, -1, -1, -1, 1, -1, -1, 0, 1, 1, 0, 1, -1, 1, -1, 1, 0, 1, -1, 1, -1, -1, 1, -1, 1, 0, 1, -1, 0, 1, 1, -1, -1, -1, 0, 1, 1, -1, -1, 1, -1, -1, -1, -1, -1, 1, 1, -1, 1, -1, -1, -1, 1, -1, 1, 1, -1, -1, -1, -1, -1 )

[sub_resource type="ConcavePolygonShape" id=15]
data = PoolVector3Array( 0, 1, 1, 1, -1, 1, -1, -1, 1, 0, 1, -1, -1, -1, -1, 1, -1, -1, 0, 1, 1, 0, 1, -1, 1, -1, 1, 0, 1, -1, 1, -1, -1, 1, -1, 1, 0, 1, -1, 0, 1, 1, -1, -1, -1, 0, 1, 1, -1, -1, 1, -1, -1, -1, -1, -1, 1, 1, -1, 1, -1, -1, -1, 1, -1, 1, 1, -1, -1, -1, -1, -1 )

[sub_resource type="ConcavePolygonShape" id=16]
data = PoolVector3Array( 0, 1, 1, 1, -1, 1, -1, -1, 1, 0, 1, -1, -1, -1, -1, 1, -1, -1, 0, 1, 1, 0, 1, -1, 1, -1, 1, 0, 1, -1, 1, -1, -1, 1, -1, 1, 0, 1, -1, 0, 1, 1, -1, -1, -1, 0, 1, 1, -1, -1, 1, -1, -1, -1, -1, -1, 1, 1, -1, 1, -1, -1, -1, 1, -1, 1, 1, -1, -1, -1, -1, -1 )

[sub_resource type="CubeMesh" id=17]

[sub_resource type="SpatialMaterial" id=18]
albedo_texture = ExtResource( 2 )
uv1_scale = Vector3( 30, 20, 30 )

[sub_resource type="ConcavePolygonShape" id=19]
data = PoolVector3Array( -1, 1, 1, 1, 1, 1, -1, -1, 1, 1, 1, 1, 1, -1, 1, -1, -1, 1, 1, 1, -1, -1, 1, -1, 1, -1, -1, -1, 1, -1, -1, -1, -1, 1, -1, -1, 1, 1, 1, 1, 1, -1, 1, -1, 1, 1, 1, -1, 1, -1, -1, 1, -1, 1, -1, 1, -1, -1, 1, 1, -1, -1, -1, -1, 1, 1, -1, -1, 1, -1, -1, -1, 1, 1, 1, -1, 1, 1, 1, 1, -1, -1, 1, 1, -1, 1, -1, 1, 1, -1, -1, -1, 1, 1, -1, 1, -1, -1, -1, 1, -1, 1, 1, -1, -1, -1, -1, -1 )

[sub_resource type="QuadMesh" id=20]

[sub_resource type="SpatialMaterial" id=21]
albedo_texture = ExtResource( 2 )

[sub_resource type="SphereMesh" id=22]

[sub_resource type="SpatialMaterial" id=23]
albedo_color = Color( 1, 0, 0, 1 )

[node name="Level" type="Spatial"]
script = ExtResource( 6 )

[node name="WorldEnvironment" type="WorldEnvironment" parent="."]
environment = SubResource( 1 )

[node name="navmesh" type="Navigation" parent="."]

[node name="NavigationMeshInstance" type="NavigationMeshInstance" parent="navmesh"]
navmesh = SubResource( 2 )

[node name="Terrain" type="Spatial" parent="navmesh/NavigationMeshInstance"]

[node name="Ground4" type="MeshInstance" parent="navmesh/NavigationMeshInstance/Terrain"]
transform = Transform( 2.62268e-06, 0, -20, 0, 1, 0, 20, 0, 2.62268e-06, 0, 0, -287 )
mesh = SubResource( 3 )
material/0 = SubResource( 4 )

[node name="StaticBody" type="StaticBody" parent="navmesh/NavigationMeshInstance/Terrain/Ground4"]

[node name="CollisionShape" type="CollisionShape" parent="navmesh/NavigationMeshInstance/Terrain/Ground4/StaticBody"]
shape = SubResource( 5 )

[node name="Wall1" type="MeshInstance" parent="navmesh/NavigationMeshInstance/Terrain/Ground4"]
transform = Transform( 0.005, 0, 0, 0, 5, 0, 0, 0, 1, -0.95, 5, 0 )
mesh = SubResource( 6 )
material/0 = SubResource( 7 )

[node name="StaticBody" type="StaticBody" parent="navmesh/NavigationMeshInstance/Terrain/Ground4/Wall1"]

[node name="CollisionShape" type="CollisionShape" parent="navmesh/NavigationMeshInstance/Terrain/Ground4/Wall1/StaticBody"]
shape = SubResource( 8 )

[node name="Wall2" type="MeshInstance" parent="navmesh/NavigationMeshInstance/Terrain/Ground4"]
transform = Transform( 0.005, 0, -2.84217e-14, 0, 5, 0, 1.11022e-16, 0, 1, -0.95, 15, 0 )
mesh = SubResource( 6 )
material/0 = SubResource( 7 )

[node name="StaticBody" type="StaticBody" parent="navmesh/NavigationMeshInstance/Terrain/Ground4/Wall2"]

[node name="CollisionShape" type="CollisionShape" parent="navmesh/NavigationMeshInstance/Terrain/Ground4/Wall2/StaticBody"]
shape = SubResource( 8 )

[node name="Ground14" type="MeshInstance" parent="navmesh/NavigationMeshInstance/Terrain"]
transform = Transform( 2.62268e-06, 0, -20, 0, 1, 0, 20, 0, 2.62268e-06, 40, 0, -287 )
mesh = SubResource( 3 )
material/0 = SubResource( 4 )

[node name="StaticBody" type="StaticBody" parent="navmesh/NavigationMeshInstance/Terrain/Ground14"]

[node name="CollisionShape" type="CollisionShape" parent="navmesh/NavigationMeshInstance/Terrain/Ground14/StaticBody"]
shape = SubResource( 5 )

[node name="Wall1" type="MeshInstance" parent="navmesh/NavigationMeshInstance/Terrain/Ground14"]
transform = Transform( 0.005, 0, 0, 0, 5, 0, 0, 0, 1, -0.95, 5, 0 )
mesh = SubResource( 6 )
material/0 = SubResource( 7 )

[node name="StaticBody" type="StaticBody" parent="navmesh/NavigationMeshInstance/Terrain/Ground14/Wall1"]

[node name="CollisionShape" type="CollisionShape" parent="navmesh/NavigationMeshInstance/Terrain/Ground14/Wall1/StaticBody"]
shape = SubResource( 8 )

[node name="Wall2" type="MeshInstance" parent="navmesh/NavigationMeshInstance/Terrain/Ground14"]
transform = Transform( 0.005, 0, 0, 0, 5, 0, 0, 0, 1, -0.95, 15, 0 )
mesh = SubResource( 6 )
material/0 = SubResource( 7 )

[node name="StaticBody" type="StaticBody" parent="navmesh/NavigationMeshInstance/Terrain/Ground14/Wall2"]

[node name="CollisionShape" type="CollisionShape" parent="navmesh/NavigationMeshInstance/Terrain/Ground14/Wall2/StaticBody"]
shape = SubResource( 8 )

[node name="Ground15" type="MeshInstance" parent="navmesh/NavigationMeshInstance/Terrain"]
transform = Transform( 2.62268e-06, 0, -20, 0, 1, 0, 20, 0, 2.62268e-06, -40, 0, -287 )
mesh = SubResource( 3 )
material/0 = SubResource( 4 )

[node name="StaticBody" type="StaticBody" parent="navmesh/NavigationMeshInstance/Terrain/Ground15"]

[node name="CollisionShape" type="CollisionShape" parent="navmesh/NavigationMeshInstance/Terrain/Ground15/StaticBody"]
shape = SubResource( 5 )

[node name="Wall1" type="MeshInstance" parent="navmesh/NavigationMeshInstance/Terrain/Ground15"]
transform = Transform( 0.005, 0, 0, 0, 5, 0, 0, 0, 1, -0.95, 5, 0 )
mesh = SubResource( 6 )
material/0 = SubResource( 7 )

[node name="StaticBody" type="StaticBody" parent="navmesh/NavigationMeshInstance/Terrain/Ground15/Wall1"]

[node name="CollisionShape" type="CollisionShape" parent="navmesh/NavigationMeshInstance/Terrain/Ground15/Wall1/StaticBody"]
shape = SubResource( 8 )

[node name="Wall2" type="MeshInstance" parent="navmesh/NavigationMeshInstance/Terrain/Ground15"]
transform = Transform( 0.005, 0, 0, 0, 5, 0, 0, 0, 1, -0.95, 15, 0 )
mesh = SubResource( 6 )
material/0 = SubResource( 7 )

[node name="StaticBody" type="StaticBody" parent="navmesh/NavigationMeshInstance/Terrain/Ground15/Wall2"]

[node name="CollisionShape" type="CollisionShape" parent="navmesh/NavigationMeshInstance/Terrain/Ground15/Wall2/StaticBody"]
shape = SubResource( 8 )

[node name="Ground5" type="MeshInstance" parent="navmesh/NavigationMeshInstance/Terrain"]
transform = Transform( -3.8147e-06, 0, 20, 0, 1, 0, -20, 0, -3.8147e-06, 0, 0, -127 )
mesh = SubResource( 3 )
material/0 = SubResource( 4 )

[node name="StaticBody" type="StaticBody" parent="navmesh/NavigationMeshInstance/Terrain/Ground5"]

[node name="CollisionShape" type="CollisionShape" parent="navmesh/NavigationMeshInstance/Terrain/Ground5/StaticBody"]
shape = SubResource( 5 )

[node name="Wall1" type="MeshInstance" parent="navmesh/NavigationMeshInstance/Terrain/Ground5"]
transform = Transform( 0.005, 0, 0, 0, 5, 0, 0, 0, 1, -0.95, 5, 0 )
mesh = SubResource( 6 )
material/0 = SubResource( 7 )

[node name="StaticBody" type="StaticBody" parent="navmesh/NavigationMeshInstance/Terrain/Ground5/Wall1"]

[node name="CollisionShape" type="CollisionShape" parent="navmesh/NavigationMeshInstance/Terrain/Ground5/Wall1/StaticBody"]
shape = SubResource( 8 )

[node name="Wall2" type="MeshInstance" parent="navmesh/NavigationMeshInstance/Terrain/Ground5"]
transform = Transform( 0.005, 0, 0, 0, 5, 0, 0, 0, 1, -0.95, 15, -2.27374e-13 )
mesh = SubResource( 6 )
material/0 = SubResource( 7 )

[node name="StaticBody" type="StaticBody" parent="navmesh/NavigationMeshInstance/Terrain/Ground5/Wall2"]

[node name="CollisionShape" type="CollisionShape" parent="navmesh/NavigationMeshInstance/Terrain/Ground5/Wall2/StaticBody"]
shape = SubResource( 8 )

[node name="Ground16" type="MeshInstance" parent="navmesh/NavigationMeshInstance/Terrain"]
transform = Transform( -3.8147e-06, 0, 20, 0, 1, 0, -20, 0, -3.8147e-06, -40, 0, -127 )
mesh = SubResource( 3 )
material/0 = SubResource( 4 )

[node name="StaticBody" type="StaticBody" parent="navmesh/NavigationMeshInstance/Terrain/Ground16"]

[node name="CollisionShape" type="CollisionShape" parent="navmesh/NavigationMeshInstance/Terrain/Ground16/StaticBody"]
shape = SubResource( 5 )

[node name="Wall1" type="MeshInstance" parent="navmesh/NavigationMeshInstance/Terrain/Ground16"]
transform = Transform( 0.005, 0, 0, 0, 5, 0, 0, 0, 1, -0.95, 5, 0 )
mesh = SubResource( 6 )
material/0 = SubResource( 7 )

[node name="StaticBody" type="StaticBody" parent="navmesh/NavigationMeshInstance/Terrain/Ground16/Wall1"]

[node name="CollisionShape" type="CollisionShape" parent="navmesh/NavigationMeshInstance/Terrain/Ground16/Wall1/StaticBody"]
shape = SubResource( 8 )

[node name="Wall2" type="MeshInstance" parent="navmesh/NavigationMeshInstance/Terrain/Ground16"]
transform = Transform( 0.005, 0, 0, 0, 5, 0, 0, 0, 1, -0.95, 15, 2.38419e-07 )
mesh = SubResource( 6 )
material/0 = SubResource( 7 )

[node name="StaticBody" type="StaticBody" parent="navmesh/NavigationMeshInstance/Terrain/Ground16/Wall2"]

[node name="CollisionShape" type="CollisionShape" parent="navmesh/NavigationMeshInstance/Terrain/Ground16/Wall2/StaticBody"]
shape = SubResource( 8 )

[node name="Ground17" type="MeshInstance" parent="navmesh/NavigationMeshInstance/Terrain"]
transform = Transform( -3.8147e-06, 0, 20, 0, 1, 0, -20, 0, -3.8147e-06, 40, 0, -127 )
mesh = SubResource( 3 )
material/0 = SubResource( 4 )

[node name="StaticBody" type="StaticBody" parent="navmesh/NavigationMeshInstance/Terrain/Ground17"]

[node name="CollisionShape" type="CollisionShape" parent="navmesh/NavigationMeshInstance/Terrain/Ground17/StaticBody"]
shape = SubResource( 5 )

[node name="Wall1" type="MeshInstance" parent="navmesh/NavigationMeshInstance/Terrain/Ground17"]
transform = Transform( 0.005, 0, 0, 0, 5, 0, 0, 0, 1, -0.95, 5, 0 )
mesh = SubResource( 6 )
material/0 = SubResource( 7 )

[node name="StaticBody" type="StaticBody" parent="navmesh/NavigationMeshInstance/Terrain/Ground17/Wall1"]

[node name="CollisionShape" type="CollisionShape" parent="navmesh/NavigationMeshInstance/Terrain/Ground17/Wall1/StaticBody"]
shape = SubResource( 8 )

[node name="Wall2" type="MeshInstance" parent="navmesh/NavigationMeshInstance/Terrain/Ground17"]
transform = Transform( 0.005, 0, 0, 0, 5, 0, 0, 0, 1, -0.95, 15, -2.38419e-07 )
mesh = SubResource( 6 )
material/0 = SubResource( 7 )

[node name="StaticBody" type="StaticBody" parent="navmesh/NavigationMeshInstance/Terrain/Ground17/Wall2"]

[node name="CollisionShape" type="CollisionShape" parent="navmesh/NavigationMeshInstance/Terrain/Ground17/Wall2/StaticBody"]
shape = SubResource( 8 )

[node name="Ground18" type="MeshInstance" parent="navmesh/NavigationMeshInstance/Terrain"]
transform = Transform( -20, 0, -4.68892e-06, 0, 1, 0, 4.68892e-06, 0, -20, 80, 0, -207 )
mesh = SubResource( 3 )
material/0 = SubResource( 4 )

[node name="StaticBody" type="StaticBody" parent="navmesh/NavigationMeshInstance/Terrain/Ground18"]

[node name="CollisionShape" type="CollisionShape" parent="navmesh/NavigationMeshInstance/Terrain/Ground18/StaticBody"]
shape = SubResource( 5 )

[node name="Wall1" type="MeshInstance" parent="navmesh/NavigationMeshInstance/Terrain/Ground18"]
transform = Transform( 0.005, 0, 0, 0, 5, 0, 0, 0, 1, -0.95, 5, 0 )
mesh = SubResource( 6 )
material/0 = SubResource( 7 )

[node name="StaticBody" type="StaticBody" parent="navmesh/NavigationMeshInstance/Terrain/Ground18/Wall1"]

[node name="CollisionShape" type="CollisionShape" parent="navmesh/NavigationMeshInstance/Terrain/Ground18/Wall1/StaticBody"]
shape = SubResource( 8 )

[node name="Wall2" type="MeshInstance" parent="navmesh/NavigationMeshInstance/Terrain/Ground18"]
transform = Transform( 0.005, 0, -2.84217e-14, 0, 5, 0, 0, 0, 1, -0.95, 15, 0 )
mesh = SubResource( 6 )
material/0 = SubResource( 7 )

[node name="StaticBody" type="StaticBody" parent="navmesh/NavigationMeshInstance/Terrain/Ground18/Wall2"]

[node name="CollisionShape" type="CollisionShape" parent="navmesh/NavigationMeshInstance/Terrain/Ground18/Wall2/StaticBody"]
shape = SubResource( 8 )

[node name="Ground19" type="MeshInstance" parent="navmesh/NavigationMeshInstance/Terrain"]
transform = Transform( -20, 0, -4.68892e-06, 0, 1, 0, 4.68892e-06, 0, -20, 80, 0, -167 )
mesh = SubResource( 3 )
material/0 = SubResource( 4 )

[node name="StaticBody" type="StaticBody" parent="navmesh/NavigationMeshInstance/Terrain/Ground19"]

[node name="CollisionShape" type="CollisionShape" parent="navmesh/NavigationMeshInstance/Terrain/Ground19/StaticBody"]
shape = SubResource( 5 )

[node name="Wall1" type="MeshInstance" parent="navmesh/NavigationMeshInstance/Terrain/Ground19"]
transform = Transform( 0.005, 0, 0, 0, 5, 0, 0, 0, 1, -0.95, 5, 0 )
mesh = SubResource( 6 )
material/0 = SubResource( 7 )

[node name="StaticBody" type="StaticBody" parent="navmesh/NavigationMeshInstance/Terrain/Ground19/Wall1"]

[node name="CollisionShape" type="CollisionShape" parent="navmesh/NavigationMeshInstance/Terrain/Ground19/Wall1/StaticBody"]
shape = SubResource( 8 )

[node name="Wall2" type="MeshInstance" parent="navmesh/NavigationMeshInstance/Terrain/Ground19"]
transform = Transform( 0.005, 0, -2.84217e-14, 0, 5, 0, 0, 0, 1, -0.95, 15, 0 )
mesh = SubResource( 6 )
material/0 = SubResource( 7 )

[node name="StaticBody" type="StaticBody" parent="navmesh/NavigationMeshInstance/Terrain/Ground19/Wall2"]

[node name="CollisionShape" type="CollisionShape" parent="navmesh/NavigationMeshInstance/Terrain/Ground19/Wall2/StaticBody"]
shape = SubResource( 8 )

[node name="Ground20" type="MeshInstance" parent="navmesh/NavigationMeshInstance/Terrain"]
transform = Transform( -20, 0, -4.68892e-06, 0, 1, 0, 4.68892e-06, 0, -20, 80, 0, -247 )
mesh = SubResource( 3 )
material/0 = SubResource( 4 )

[node name="StaticBody" type="StaticBody" parent="navmesh/NavigationMeshInstance/Terrain/Ground20"]

[node name="CollisionShape" type="CollisionShape" parent="navmesh/NavigationMeshInstance/Terrain/Ground20/StaticBody"]
shape = SubResource( 5 )

[node name="Wall1" type="MeshInstance" parent="navmesh/NavigationMeshInstance/Terrain/Ground20"]
transform = Transform( 0.005, 0, 0, 0, 5, 0, 0, 0, 1, -0.95, 5, 0 )
mesh = SubResource( 6 )
material/0 = SubResource( 7 )

[node name="StaticBody" type="StaticBody" parent="navmesh/NavigationMeshInstance/Terrain/Ground20/Wall1"]

[node name="CollisionShape" type="CollisionShape" parent="navmesh/NavigationMeshInstance/Terrain/Ground20/Wall1/StaticBody"]
shape = SubResource( 8 )

[node name="Wall2" type="MeshInstance" parent="navmesh/NavigationMeshInstance/Terrain/Ground20"]
transform = Transform( 0.005, 0, -2.84217e-14, 0, 5, 0, 0, 0, 1, -0.95, 15, 0 )
mesh = SubResource( 6 )
material/0 = SubResource( 7 )

[node name="StaticBody" type="StaticBody" parent="navmesh/NavigationMeshInstance/Terrain/Ground20/Wall2"]

[node name="CollisionShape" type="CollisionShape" parent="navmesh/NavigationMeshInstance/Terrain/Ground20/Wall2/StaticBody"]
shape = SubResource( 8 )

[node name="Ground21" type="MeshInstance" parent="navmesh/NavigationMeshInstance/Terrain"]
transform = Transform( 20, 0, 6.43738e-06, 0, 1, 0, -6.43738e-06, 0, 20, -80, 0, -207 )
mesh = SubResource( 3 )
material/0 = SubResource( 4 )

[node name="StaticBody" type="StaticBody" parent="navmesh/NavigationMeshInstance/Terrain/Ground21"]

[node name="CollisionShape" type="CollisionShape" parent="navmesh/NavigationMeshInstance/Terrain/Ground21/StaticBody"]
shape = SubResource( 5 )

[node name="Wall1" type="MeshInstance" parent="navmesh/NavigationMeshInstance/Terrain/Ground21"]
transform = Transform( 0.005, 0, 0, 0, 5, 0, 0, 0, 1, -0.95, 5, 0 )
mesh = SubResource( 6 )
material/0 = SubResource( 7 )

[node name="StaticBody" type="StaticBody" parent="navmesh/NavigationMeshInstance/Terrain/Ground21/Wall1"]

[node name="CollisionShape" type="CollisionShape" parent="navmesh/NavigationMeshInstance/Terrain/Ground21/Wall1/StaticBody"]
shape = SubResource( 8 )

[node name="Wall2" type="MeshInstance" parent="navmesh/NavigationMeshInstance/Terrain/Ground21"]
transform = Transform( 0.005, 0, -2.84217e-14, 0, 5, 0, 1.11022e-16, 0, 1, -0.95, 15, -1.90735e-06 )
mesh = SubResource( 6 )
material/0 = SubResource( 7 )

[node name="StaticBody" type="StaticBody" parent="navmesh/NavigationMeshInstance/Terrain/Ground21/Wall2"]

[node name="CollisionShape" type="CollisionShape" parent="navmesh/NavigationMeshInstance/Terrain/Ground21/Wall2/StaticBody"]
shape = SubResource( 8 )

[node name="Ground22" type="MeshInstance" parent="navmesh/NavigationMeshInstance/Terrain"]
transform = Transform( 20, 0, 6.43738e-06, 0, 1, 0, -6.43738e-06, 0, 20, -80, 0, -247 )
mesh = SubResource( 3 )
material/0 = SubResource( 4 )

[node name="StaticBody" type="StaticBody" parent="navmesh/NavigationMeshInstance/Terrain/Ground22"]

[node name="CollisionShape" type="CollisionShape" parent="navmesh/NavigationMeshInstance/Terrain/Ground22/StaticBody"]
shape = SubResource( 5 )

[node name="Wall1" type="MeshInstance" parent="navmesh/NavigationMeshInstance/Terrain/Ground22"]
transform = Transform( 0.005, 0, 0, 0, 5, 0, 0, 0, 1, -0.95, 5, 0 )
mesh = SubResource( 6 )
material/0 = SubResource( 7 )

[node name="StaticBody" type="StaticBody" parent="navmesh/NavigationMeshInstance/Terrain/Ground22/Wall1"]

[node name="CollisionShape" type="CollisionShape" parent="navmesh/NavigationMeshInstance/Terrain/Ground22/Wall1/StaticBody"]
shape = SubResource( 8 )

[node name="Wall2" type="MeshInstance" parent="navmesh/NavigationMeshInstance/Terrain/Ground22"]
transform = Transform( 0.005, 0, -2.84217e-14, 0, 5, 0, 1.11022e-16, 0, 1, -0.950001, 15, -1.90735e-06 )
mesh = SubResource( 6 )
material/0 = SubResource( 7 )

[node name="StaticBody" type="StaticBody" parent="navmesh/NavigationMeshInstance/Terrain/Ground22/Wall2"]

[node name="CollisionShape" type="CollisionShape" parent="navmesh/NavigationMeshInstance/Terrain/Ground22/Wall2/StaticBody"]
shape = SubResource( 8 )

[node name="Ground23" type="MeshInstance" parent="navmesh/NavigationMeshInstance/Terrain"]
transform = Transform( 20, 0, 6.43738e-06, 0, 1, 0, -6.43738e-06, 0, 20, -80, 0, -167 )
mesh = SubResource( 3 )
material/0 = SubResource( 4 )

[node name="StaticBody" type="StaticBody" parent="navmesh/NavigationMeshInstance/Terrain/Ground23"]

[node name="CollisionShape" type="CollisionShape" parent="navmesh/NavigationMeshInstance/Terrain/Ground23/StaticBody"]
shape = SubResource( 5 )

[node name="Wall1" type="MeshInstance" parent="navmesh/NavigationMeshInstance/Terrain/Ground23"]
transform = Transform( 0.005, 0, 0, 0, 5, 0, 0, 0, 1, -0.95, 5, 0 )
mesh = SubResource( 6 )
material/0 = SubResource( 7 )

[node name="StaticBody" type="StaticBody" parent="navmesh/NavigationMeshInstance/Terrain/Ground23/Wall1"]

[node name="CollisionShape" type="CollisionShape" parent="navmesh/NavigationMeshInstance/Terrain/Ground23/Wall1/StaticBody"]
shape = SubResource( 8 )

[node name="Wall2" type="MeshInstance" parent="navmesh/NavigationMeshInstance/Terrain/Ground23"]
transform = Transform( 0.005, 0, -2.84217e-14, 0, 5, 0, 1.11022e-16, 0, 1, -0.949999, 15, -1.90735e-06 )
mesh = SubResource( 6 )
material/0 = SubResource( 7 )

[node name="StaticBody" type="StaticBody" parent="navmesh/NavigationMeshInstance/Terrain/Ground23/Wall2"]

[node name="CollisionShape" type="CollisionShape" parent="navmesh/NavigationMeshInstance/Terrain/Ground23/Wall2/StaticBody"]
shape = SubResource( 8 )

[node name="Ground24" type="MeshInstance" parent="navmesh/NavigationMeshInstance/Terrain"]
transform = Transform( 20, 0, 6.43738e-06, 0, 1, 0, -6.43738e-06, 0, 20, -80, 0, -127 )
mesh = SubResource( 3 )
material/0 = SubResource( 4 )

[node name="StaticBody" type="StaticBody" parent="navmesh/NavigationMeshInstance/Terrain/Ground24"]

[node name="CollisionShape" type="CollisionShape" parent="navmesh/NavigationMeshInstance/Terrain/Ground24/StaticBody"]
shape = SubResource( 5 )

[node name="Wall1" type="MeshInstance" parent="navmesh/NavigationMeshInstance/Terrain/Ground24"]
transform = Transform( 0.005, 0, 0, 0, 5, 0, 0, 0, 1, -0.95, 5, 0 )
mesh = SubResource( 6 )
material/0 = SubResource( 7 )

[node name="StaticBody" type="StaticBody" parent="navmesh/NavigationMeshInstance/Terrain/Ground24/Wall1"]

[node name="CollisionShape" type="CollisionShape" parent="navmesh/NavigationMeshInstance/Terrain/Ground24/Wall1/StaticBody"]
shape = SubResource( 8 )

[node name="Wall2" type="MeshInstance" parent="navmesh/NavigationMeshInstance/Terrain/Ground24"]
transform = Transform( -2.18555e-10, 0, 1, 0, 5, 0, -0.005, 0, -4.3711e-08, -3.33786e-06, 5, 0.95 )
mesh = SubResource( 6 )
material/0 = SubResource( 7 )

[node name="StaticBody" type="StaticBody" parent="navmesh/NavigationMeshInstance/Terrain/Ground24/Wall2"]

[node name="CollisionShape" type="CollisionShape" parent="navmesh/NavigationMeshInstance/Terrain/Ground24/Wall2/StaticBody"]
shape = SubResource( 8 )

[node name="Wall3" type="MeshInstance" parent="navmesh/NavigationMeshInstance/Terrain/Ground24"]
transform = Transform( 0.005, 0, -2.84217e-14, 0, 5, 0, 1.11022e-16, 0, 1, -0.950001, 15, 0 )
mesh = SubResource( 6 )
material/0 = SubResource( 7 )

[node name="StaticBody" type="StaticBody" parent="navmesh/NavigationMeshInstance/Terrain/Ground24/Wall3"]

[node name="CollisionShape" type="CollisionShape" parent="navmesh/NavigationMeshInstance/Terrain/Ground24/Wall3/StaticBody"]
shape = SubResource( 8 )

[node name="Wall4" type="MeshInstance" parent="navmesh/NavigationMeshInstance/Terrain/Ground24"]
transform = Transform( -2.18555e-10, 0, 1, 0, 5, 0, -0.005, 0, -4.3711e-08, -3.33786e-06, 15, 0.95 )
mesh = SubResource( 6 )
material/0 = SubResource( 7 )

[node name="StaticBody" type="StaticBody" parent="navmesh/NavigationMeshInstance/Terrain/Ground24/Wall4"]

[node name="CollisionShape" type="CollisionShape" parent="navmesh/NavigationMeshInstance/Terrain/Ground24/Wall4/StaticBody"]
shape = SubResource( 8 )

[node name="Ground25" type="MeshInstance" parent="navmesh/NavigationMeshInstance/Terrain"]
transform = Transform( 5.56315e-06, 0, -20, 0, 1, 0, 20, 0, 5.56315e-06, -80, 0, -287 )
mesh = SubResource( 3 )
material/0 = SubResource( 4 )

[node name="StaticBody" type="StaticBody" parent="navmesh/NavigationMeshInstance/Terrain/Ground25"]

[node name="CollisionShape" type="CollisionShape" parent="navmesh/NavigationMeshInstance/Terrain/Ground25/StaticBody"]
shape = SubResource( 5 )

[node name="Wall1" type="MeshInstance" parent="navmesh/NavigationMeshInstance/Terrain/Ground25"]
transform = Transform( 0.005, 0, 0, 0, 5, 0, 0, 0, 1, -0.95, 5, 0 )
mesh = SubResource( 6 )
material/0 = SubResource( 7 )

[node name="StaticBody" type="StaticBody" parent="navmesh/NavigationMeshInstance/Terrain/Ground25/Wall1"]

[node name="CollisionShape" type="CollisionShape" parent="navmesh/NavigationMeshInstance/Terrain/Ground25/Wall1/StaticBody"]
shape = SubResource( 8 )

[node name="Wall2" type="MeshInstance" parent="navmesh/NavigationMeshInstance/Terrain/Ground25"]
transform = Transform( -2.18555e-10, 0, 1, 0, 5, 0, -0.005, 0, -4.3711e-08, -3.33786e-06, 5, 0.95 )
mesh = SubResource( 6 )
material/0 = SubResource( 7 )

[node name="StaticBody" type="StaticBody" parent="navmesh/NavigationMeshInstance/Terrain/Ground25/Wall2"]

[node name="CollisionShape" type="CollisionShape" parent="navmesh/NavigationMeshInstance/Terrain/Ground25/Wall2/StaticBody"]
shape = SubResource( 8 )

[node name="Wall3" type="MeshInstance" parent="navmesh/NavigationMeshInstance/Terrain/Ground25"]
transform = Transform( 0.005, 0, 0, 0, 5, 0, 0, 0, 1, -0.95, 15, 0 )
mesh = SubResource( 6 )
material/0 = SubResource( 7 )

[node name="StaticBody" type="StaticBody" parent="navmesh/NavigationMeshInstance/Terrain/Ground25/Wall3"]

[node name="CollisionShape" type="CollisionShape" parent="navmesh/NavigationMeshInstance/Terrain/Ground25/Wall3/StaticBody"]
shape = SubResource( 8 )

[node name="Wall4" type="MeshInstance" parent="navmesh/NavigationMeshInstance/Terrain/Ground25"]
transform = Transform( -2.18555e-10, 0, 1, 0, 5, 0, -0.005, 0, -4.3711e-08, -2.86102e-06, 15, 0.950001 )
mesh = SubResource( 6 )
material/0 = SubResource( 7 )

[node name="StaticBody" type="StaticBody" parent="navmesh/NavigationMeshInstance/Terrain/Ground25/Wall4"]

[node name="CollisionShape" type="CollisionShape" parent="navmesh/NavigationMeshInstance/Terrain/Ground25/Wall4/StaticBody"]
shape = SubResource( 8 )

[node name="Ground26" type="MeshInstance" parent="navmesh/NavigationMeshInstance/Terrain"]
transform = Transform( -20, 0, -4.68893e-06, 0, 1, 0, 4.68893e-06, 0, -20, 80, 0, -287 )
mesh = SubResource( 3 )
material/0 = SubResource( 4 )

[node name="StaticBody" type="StaticBody" parent="navmesh/NavigationMeshInstance/Terrain/Ground26"]

[node name="CollisionShape" type="CollisionShape" parent="navmesh/NavigationMeshInstance/Terrain/Ground26/StaticBody"]
shape = SubResource( 5 )

[node name="Wall1" type="MeshInstance" parent="navmesh/NavigationMeshInstance/Terrain/Ground26"]
transform = Transform( 0.005, 0, 0, 0, 5, 0, 0, 0, 1, -0.95, 5, 0 )
mesh = SubResource( 6 )
material/0 = SubResource( 7 )

[node name="StaticBody" type="StaticBody" parent="navmesh/NavigationMeshInstance/Terrain/Ground26/Wall1"]

[node name="CollisionShape" type="CollisionShape" parent="navmesh/NavigationMeshInstance/Terrain/Ground26/Wall1/StaticBody"]
shape = SubResource( 8 )

[node name="Wall2" type="MeshInstance" parent="navmesh/NavigationMeshInstance/Terrain/Ground26"]
transform = Transform( -2.18555e-10, 0, 1, 0, 5, 0, -0.005, 0, -4.3711e-08, -3.33786e-06, 5, 0.95 )
mesh = SubResource( 6 )
material/0 = SubResource( 7 )

[node name="StaticBody" type="StaticBody" parent="navmesh/NavigationMeshInstance/Terrain/Ground26/Wall2"]

[node name="CollisionShape" type="CollisionShape" parent="navmesh/NavigationMeshInstance/Terrain/Ground26/Wall2/StaticBody"]
shape = SubResource( 8 )

[node name="Wall3" type="MeshInstance" parent="navmesh/NavigationMeshInstance/Terrain/Ground26"]
transform = Transform( 0.005, 0, -1.42109e-14, 0, 5, 0, 0, 0, 1, -0.95, 15, 0 )
mesh = SubResource( 6 )
material/0 = SubResource( 7 )

[node name="StaticBody" type="StaticBody" parent="navmesh/NavigationMeshInstance/Terrain/Ground26/Wall3"]

[node name="CollisionShape" type="CollisionShape" parent="navmesh/NavigationMeshInstance/Terrain/Ground26/Wall3/StaticBody"]
shape = SubResource( 8 )

[node name="Wall4" type="MeshInstance" parent="navmesh/NavigationMeshInstance/Terrain/Ground26"]
transform = Transform( -2.18555e-10, 0, 1, 0, 5, 0, -0.005, 0, -4.3711e-08, -3.33786e-06, 15, 0.95 )
mesh = SubResource( 6 )
material/0 = SubResource( 7 )

[node name="StaticBody" type="StaticBody" parent="navmesh/NavigationMeshInstance/Terrain/Ground26/Wall4"]

[node name="CollisionShape" type="CollisionShape" parent="navmesh/NavigationMeshInstance/Terrain/Ground26/Wall4/StaticBody"]
shape = SubResource( 8 )

[node name="Ground27" type="MeshInstance" parent="navmesh/NavigationMeshInstance/Terrain"]
transform = Transform( -3.8147e-06, 0, 20, 0, 1, 0, -20, 0, -3.8147e-06, 80, 0, -127 )
mesh = SubResource( 3 )
material/0 = SubResource( 4 )

[node name="StaticBody" type="StaticBody" parent="navmesh/NavigationMeshInstance/Terrain/Ground27"]

[node name="CollisionShape" type="CollisionShape" parent="navmesh/NavigationMeshInstance/Terrain/Ground27/StaticBody"]
shape = SubResource( 5 )

[node name="Wall1" type="MeshInstance" parent="navmesh/NavigationMeshInstance/Terrain/Ground27"]
transform = Transform( 0.005, 0, 0, 0, 5, 0, 0, 0, 1, -0.95, 5, 0 )
mesh = SubResource( 6 )
material/0 = SubResource( 7 )

[node name="StaticBody" type="StaticBody" parent="navmesh/NavigationMeshInstance/Terrain/Ground27/Wall1"]

[node name="CollisionShape" type="CollisionShape" parent="navmesh/NavigationMeshInstance/Terrain/Ground27/Wall1/StaticBody"]
shape = SubResource( 8 )

[node name="Wall2" type="MeshInstance" parent="navmesh/NavigationMeshInstance/Terrain/Ground27"]
transform = Transform( -2.18555e-10, 0, 1, 0, 5, 0, -0.005, 0, -4.3711e-08, -3.33786e-06, 5, 0.95 )
mesh = SubResource( 6 )
material/0 = SubResource( 7 )

[node name="StaticBody" type="StaticBody" parent="navmesh/NavigationMeshInstance/Terrain/Ground27/Wall2"]

[node name="CollisionShape" type="CollisionShape" parent="navmesh/NavigationMeshInstance/Terrain/Ground27/Wall2/StaticBody"]
shape = SubResource( 8 )

[node name="Wall3" type="MeshInstance" parent="navmesh/NavigationMeshInstance/Terrain/Ground27"]
transform = Transform( 0.005, 0, 0, 0, 5, 0, 0, 0, 1, -0.95, 15, 0 )
mesh = SubResource( 6 )
material/0 = SubResource( 7 )

[node name="StaticBody" type="StaticBody" parent="navmesh/NavigationMeshInstance/Terrain/Ground27/Wall3"]

[node name="CollisionShape" type="CollisionShape" parent="navmesh/NavigationMeshInstance/Terrain/Ground27/Wall3/StaticBody"]
shape = SubResource( 8 )

[node name="Wall4" type="MeshInstance" parent="navmesh/NavigationMeshInstance/Terrain/Ground27"]
transform = Transform( -2.18555e-10, 0, 1, 0, 5, 0, -0.005, 0, -4.3711e-08, -3.33786e-06, 15, 0.950001 )
mesh = SubResource( 6 )
material/0 = SubResource( 7 )

[node name="StaticBody" type="StaticBody" parent="navmesh/NavigationMeshInstance/Terrain/Ground27/Wall4"]

[node name="CollisionShape" type="CollisionShape" parent="navmesh/NavigationMeshInstance/Terrain/Ground27/Wall4/StaticBody"]
shape = SubResource( 8 )

[node name="Ground2" type="MeshInstance" parent="navmesh/NavigationMeshInstance/Terrain"]
transform = Transform( 20, 0, 0, 0, 1, 0, 0, 0, 20, 0, 0, -207 )
mesh = SubResource( 3 )
material/0 = SubResource( 4 )

[node name="StaticBody" type="StaticBody" parent="navmesh/NavigationMeshInstance/Terrain/Ground2"]

[node name="CollisionShape" type="CollisionShape" parent="navmesh/NavigationMeshInstance/Terrain/Ground2/StaticBody"]
shape = SubResource( 5 )

[node name="Ground6" type="MeshInstance" parent="navmesh/NavigationMeshInstance/Terrain"]
transform = Transform( 20, 0, 0, 0, 1, 0, 0, 0, 20, 0, 0, -167 )
mesh = SubResource( 3 )
material/0 = SubResource( 4 )

[node name="StaticBody" type="StaticBody" parent="navmesh/NavigationMeshInstance/Terrain/Ground6"]

[node name="CollisionShape" type="CollisionShape" parent="navmesh/NavigationMeshInstance/Terrain/Ground6/StaticBody"]
shape = SubResource( 5 )

[node name="Ground7" type="MeshInstance" parent="navmesh/NavigationMeshInstance/Terrain"]
transform = Transform( 20, 0, 0, 0, 1, 0, 0, 0, 20, 0, 0, -247 )
mesh = SubResource( 3 )
material/0 = SubResource( 4 )

[node name="StaticBody" type="StaticBody" parent="navmesh/NavigationMeshInstance/Terrain/Ground7"]

[node name="CollisionShape" type="CollisionShape" parent="navmesh/NavigationMeshInstance/Terrain/Ground7/StaticBody"]
shape = SubResource( 5 )

[node name="Ground8" type="MeshInstance" parent="navmesh/NavigationMeshInstance/Terrain"]
transform = Transform( 20, 0, 0, 0, 1, 0, 0, 0, 20, 40, 0, -207 )
mesh = SubResource( 3 )
material/0 = SubResource( 4 )

[node name="StaticBody" type="StaticBody" parent="navmesh/NavigationMeshInstance/Terrain/Ground8"]

[node name="CollisionShape" type="CollisionShape" parent="navmesh/NavigationMeshInstance/Terrain/Ground8/StaticBody"]
shape = SubResource( 5 )

[node name="Ground9" type="MeshInstance" parent="navmesh/NavigationMeshInstance/Terrain"]
transform = Transform( 20, 0, 0, 0, 1, 0, 0, 0, 20, 40, 0, -167 )
mesh = SubResource( 3 )
material/0 = SubResource( 4 )

[node name="StaticBody" type="StaticBody" parent="navmesh/NavigationMeshInstance/Terrain/Ground9"]

[node name="CollisionShape" type="CollisionShape" parent="navmesh/NavigationMeshInstance/Terrain/Ground9/StaticBody"]
shape = SubResource( 5 )

[node name="Wedge" type="MeshInstance" parent="navmesh/NavigationMeshInstance/Terrain"]
transform = Transform( -4.37114e-07, 20, 0, -10, -8.74228e-07, 0, 0, 0, 20, 40, 0, -167 )
mesh = SubResource( 9 )
material/0 = SubResource( 10 )

[node name="Wedge1" type="MeshInstance" parent="navmesh/NavigationMeshInstance/Terrain/Wedge"]
transform = Transform( 1, 7.10543e-15, 0, -1.77636e-15, 1, 0, 0, 0, 0.0075, 0, 0, 0.994035 )
mesh = SubResource( 9 )
material/0 = SubResource( 11 )

[node name="Wedge2" type="MeshInstance" parent="navmesh/NavigationMeshInstance/Terrain/Wedge"]
transform = Transform( 1, 7.10543e-15, 0, -1.77636e-15, 1, 0, 0, 0, 0.0075, 0, 0, -0.994285 )
mesh = SubResource( 9 )
material/0 = SubResource( 12 )

[node name="StaticBody" type="StaticBody" parent="navmesh/NavigationMeshInstance/Terrain/Wedge"]

[node name="CollisionShape" type="CollisionShape" parent="navmesh/NavigationMeshInstance/Terrain/Wedge/StaticBody"]
shape = SubResource( 13 )

[node name="Wedge2" type="MeshInstance" parent="navmesh/NavigationMeshInstance/Terrain"]
transform = Transform( 4.37114e-07, -20, -9.53674e-07, -10, -8.74228e-07, 0, -2.84217e-14, 9.53674e-07, -20, -40, 0, -167 )
mesh = SubResource( 9 )
material/0 = SubResource( 10 )

[node name="Wedge1" type="MeshInstance" parent="navmesh/NavigationMeshInstance/Terrain/Wedge2"]
transform = Transform( 1, 7.10543e-15, 0, -1.77636e-15, 1, 0, 0, 0, 0.0075, 0, 0, 0.994035 )
mesh = SubResource( 9 )
material/0 = SubResource( 11 )

[node name="Wedge2" type="MeshInstance" parent="navmesh/NavigationMeshInstance/Terrain/Wedge2"]
transform = Transform( 1, 7.10543e-15, 0, -1.77636e-15, 1, 0, 0, 0, 0.0075, 0, 0, -0.994285 )
mesh = SubResource( 9 )
material/0 = SubResource( 12 )

[node name="StaticBody" type="StaticBody" parent="navmesh/NavigationMeshInstance/Terrain/Wedge2"]

[node name="CollisionShape" type="CollisionShape" parent="navmesh/NavigationMeshInstance/Terrain/Wedge2/StaticBody"]
shape = SubResource( 14 )

[node name="Wedge3" type="MeshInstance" parent="navmesh/NavigationMeshInstance/Terrain"]
transform = Transform( -4.37114e-07, 20, 0, -10, -8.74228e-07, 0, 0, 0, 20, 40, 0, -247 )
mesh = SubResource( 9 )
material/0 = SubResource( 10 )

[node name="Wedge1" type="MeshInstance" parent="navmesh/NavigationMeshInstance/Terrain/Wedge3"]
transform = Transform( 1, 7.10543e-15, 0, -1.77636e-15, 1, 0, 0, 0, 0.0075, 0, 0, 0.994035 )
mesh = SubResource( 9 )
material/0 = SubResource( 11 )

[node name="Wedge2" type="MeshInstance" parent="navmesh/NavigationMeshInstance/Terrain/Wedge3"]
transform = Transform( 1, 7.10543e-15, 0, -1.77636e-15, 1, 0, 0, 0, 0.0075, 0, 0, -0.994285 )
mesh = SubResource( 9 )
material/0 = SubResource( 12 )

[node name="StaticBody" type="StaticBody" parent="navmesh/NavigationMeshInstance/Terrain/Wedge3"]

[node name="CollisionShape" type="CollisionShape" parent="navmesh/NavigationMeshInstance/Terrain/Wedge3/StaticBody"]
shape = SubResource( 15 )

[node name="Wedge4" type="MeshInstance" parent="navmesh/NavigationMeshInstance/Terrain"]
transform = Transform( 4.37114e-07, -20, -9.53674e-07, -10, -8.74228e-07, 0, -2.84217e-14, 9.53674e-07, -20, -40, 0, -247 )
mesh = SubResource( 9 )
material/0 = SubResource( 10 )

[node name="Wedge1" type="MeshInstance" parent="navmesh/NavigationMeshInstance/Terrain/Wedge4"]
transform = Transform( 1, 7.10543e-15, 0, -1.77636e-15, 1, 0, 0, 0, 0.0075, 0, 0, 0.994035 )
mesh = SubResource( 9 )
material/0 = SubResource( 11 )

[node name="Wedge2" type="MeshInstance" parent="navmesh/NavigationMeshInstance/Terrain/Wedge4"]
transform = Transform( 1, 7.10543e-15, 0, -1.77636e-15, 1, 0, 0, 0, 0.0075, 0, 0, -0.994285 )
mesh = SubResource( 9 )
material/0 = SubResource( 12 )

[node name="StaticBody" type="StaticBody" parent="navmesh/NavigationMeshInstance/Terrain/Wedge4"]

[node name="CollisionShape" type="CollisionShape" parent="navmesh/NavigationMeshInstance/Terrain/Wedge4/StaticBody"]
shape = SubResource( 16 )

[node name="Ground10" type="MeshInstance" parent="navmesh/NavigationMeshInstance/Terrain"]
transform = Transform( 20, 0, 0, 0, 1, 0, 0, 0, 20, 40, 0, -247 )
mesh = SubResource( 3 )
material/0 = SubResource( 4 )

[node name="StaticBody" type="StaticBody" parent="navmesh/NavigationMeshInstance/Terrain/Ground10"]

[node name="CollisionShape" type="CollisionShape" parent="navmesh/NavigationMeshInstance/Terrain/Ground10/StaticBody"]
shape = SubResource( 5 )

[node name="Ground11" type="MeshInstance" parent="navmesh/NavigationMeshInstance/Terrain"]
transform = Transform( 20, 0, 0, 0, 1, 0, 0, 0, 20, -40, 0, -207 )
mesh = SubResource( 3 )
material/0 = SubResource( 4 )

[node name="StaticBody" type="StaticBody" parent="navmesh/NavigationMeshInstance/Terrain/Ground11"]

[node name="CollisionShape" type="CollisionShape" parent="navmesh/NavigationMeshInstance/Terrain/Ground11/StaticBody"]
shape = SubResource( 5 )

[node name="Ground12" type="MeshInstance" parent="navmesh/NavigationMeshInstance/Terrain"]
transform = Transform( 20, 0, 0, 0, 1, 0, 0, 0, 20, -40, 0, -167 )
mesh = SubResource( 3 )
material/0 = SubResource( 4 )

[node name="StaticBody" type="StaticBody" parent="navmesh/NavigationMeshInstance/Terrain/Ground12"]

[node name="CollisionShape" type="CollisionShape" parent="navmesh/NavigationMeshInstance/Terrain/Ground12/StaticBody"]
shape = SubResource( 5 )

[node name="Ground13" type="MeshInstance" parent="navmesh/NavigationMeshInstance/Terrain"]
transform = Transform( 20, 0, 0, 0, 1, 0, 0, 0, 20, -40, 0, -247 )
mesh = SubResource( 3 )
material/0 = SubResource( 4 )

[node name="StaticBody" type="StaticBody" parent="navmesh/NavigationMeshInstance/Terrain/Ground13"]

[node name="CollisionShape" type="CollisionShape" parent="navmesh/NavigationMeshInstance/Terrain/Ground13/StaticBody"]
shape = SubResource( 5 )

[node name="Platform" type="MeshInstance" parent="navmesh/NavigationMeshInstance/Terrain"]
transform = Transform( 20, 0, 0, 0, 20, 0, 0, 0, 20, 0, -10, -167 )
mesh = SubResource( 17 )
material/0 = SubResource( 18 )

[node name="StaticBody" type="StaticBody" parent="navmesh/NavigationMeshInstance/Terrain/Platform"]

[node name="CollisionShape" type="CollisionShape" parent="navmesh/NavigationMeshInstance/Terrain/Platform/StaticBody"]
shape = SubResource( 19 )

[node name="Wedge4" type="MeshInstance" parent="navmesh/NavigationMeshInstance/Terrain/Platform"]
transform = Transform( -2.5828e-07, 2, 4.76836e-08, -1, -6.3573e-08, 7.54979e-08, 3.01992e-07, -9.53672e-08, 1, 0, 0.5, 1.0014 )
mesh = SubResource( 20 )
material/0 = SubResource( 21 )

[node name="Wedge5" type="MeshInstance" parent="navmesh/NavigationMeshInstance/Terrain/Platform"]
transform = Transform( 2.5828e-07, -2, -1.35106e-07, -1, -6.3573e-08, 7.54979e-08, -3.01992e-07, 2.70213e-07, -1, 0, 0.5, -1.00248 )
mesh = SubResource( 20 )
material/0 = SubResource( 21 )

[node name="Platform3" type="MeshInstance" parent="navmesh/NavigationMeshInstance/Terrain"]
transform = Transform( 20, 0, 0, 0, 0.01, 0, 0, 0, 20, 0, 10, -207 )
mesh = SubResource( 17 )
material/0 = SubResource( 18 )

[node name="StaticBody" type="StaticBody" parent="navmesh/NavigationMeshInstance/Terrain/Platform3"]

[node name="CollisionShape" type="CollisionShape" parent="navmesh/NavigationMeshInstance/Terrain/Platform3/StaticBody"]
shape = SubResource( 19 )

[node name="Wedge4" type="MeshInstance" parent="navmesh/NavigationMeshInstance/Terrain/Platform3"]
transform = Transform( -2.5828e-07, 2, 4.76836e-08, -1, -6.3573e-08, 7.54979e-08, 3.01992e-07, -9.53672e-08, 1, 0, 0.5, 1.0014 )
mesh = SubResource( 20 )
material/0 = SubResource( 21 )

[node name="Wedge5" type="MeshInstance" parent="navmesh/NavigationMeshInstance/Terrain/Platform3"]
transform = Transform( 2.5828e-07, -2, -1.35106e-07, -1, -6.3573e-08, 7.54979e-08, -3.01992e-07, 2.70213e-07, -1, 0, 0.5, -1.00248 )
mesh = SubResource( 20 )
material/0 = SubResource( 21 )

[node name="Platform2" type="MeshInstance" parent="navmesh/NavigationMeshInstance/Terrain"]
transform = Transform( 20, 0, 0, 0, 20, 0, 0, 0, 20, 0, -10, -247 )
mesh = SubResource( 17 )
material/0 = SubResource( 18 )

[node name="StaticBody" type="StaticBody" parent="navmesh/NavigationMeshInstance/Terrain/Platform2"]

[node name="CollisionShape" type="CollisionShape" parent="navmesh/NavigationMeshInstance/Terrain/Platform2/StaticBody"]
shape = SubResource( 19 )

[node name="Wedge4" type="MeshInstance" parent="navmesh/NavigationMeshInstance/Terrain/Platform2"]
transform = Transform( -2.5828e-07, 2, 4.76836e-08, -1, -6.3573e-08, 7.54979e-08, 3.01992e-07, -9.53672e-08, 1, 0, 0.5, 1.0014 )
mesh = SubResource( 20 )
material/0 = SubResource( 21 )

[node name="Wedge5" type="MeshInstance" parent="navmesh/NavigationMeshInstance/Terrain/Platform2"]
transform = Transform( 2.5828e-07, -2, -1.35106e-07, -1, -6.3573e-08, 7.54979e-08, -3.01992e-07, 2.70213e-07, -1, 0, 0.5, -1.00248 )
mesh = SubResource( 20 )
material/0 = SubResource( 21 )

[node name="StonePedestal" parent="navmesh/NavigationMeshInstance/Terrain" instance=ExtResource( 5 )]
transform = Transform( 0.25, 0, 0, 0, 2, 0, 0, 0, 0.25, -19, 10, -148 )

[node name="StonePedestal2" parent="navmesh/NavigationMeshInstance/Terrain" instance=ExtResource( 5 )]
transform = Transform( 0.25, 0, 0, 0, 2, 0, 0, 0, 0.25, 19, 10, -148 )

[node name="StonePedestal3" parent="navmesh/NavigationMeshInstance/Terrain" instance=ExtResource( 5 )]
transform = Transform( 0.25, 0, 0, 0, 2, 0, 0, 0, 0.25, 19, 10, -266 )

[node name="StonePedestal4" parent="navmesh/NavigationMeshInstance/Terrain" instance=ExtResource( 5 )]
transform = Transform( 0.25, 0, 0, 0, 2, 0, 0, 0, 0.25, -19, 10, -266 )

[node name="StonePedestal5" parent="navmesh/NavigationMeshInstance/Terrain" instance=ExtResource( 5 )]
transform = Transform( 0.25, 0, 0, 0, 2, 0, 0, 0, 0.25, -19, 12, -226 )

[node name="StonePedestal6" parent="navmesh/NavigationMeshInstance/Terrain" instance=ExtResource( 5 )]
transform = Transform( 0.25, 0, 0, 0, 2, 0, 0, 0, 0.25, -19, 12, -188 )

[node name="StonePedestal7" parent="navmesh/NavigationMeshInstance/Terrain" instance=ExtResource( 5 )]
transform = Transform( 0.25, 0, 0, 0, 2, 0, 0, 0, 0.25, 19, 12, -188 )

[node name="StonePedestal8" parent="navmesh/NavigationMeshInstance/Terrain" instance=ExtResource( 5 )]
transform = Transform( 0.25, 0, 0, 0, 2, 0, 0, 0, 0.25, 19, 12, -226 )

[node name="Player" parent="." instance=ExtResource( 4 )]
transform = Transform( -1, 0, -8.74228e-08, 0, 1, 0, 8.74228e-08, 0, -1, 0.0121002, 2, -206.997 )

[node name="Ceiling" parent="." instance=ExtResource( 3 )]
transform = Transform( 1000, 0, 0, 0, 1, 0, 0, 0, 1000, -45, 20, -117 )

[node name="SpawnNodes" type="Node" parent="."]

[node name="SpawnNode1" type="Spatial" parent="SpawnNodes"]
transform = Transform( 1, 0, 0, 0, 1, 0, 0, 0, 1, 0, 0, -127 )
visible = false

[node name="MeshInstance" type="MeshInstance" parent="SpawnNodes/SpawnNode1"]
mesh = SubResource( 22 )
material/0 = SubResource( 23 )

[node name="SpawnNode2" type="Spatial" parent="SpawnNodes"]
transform = Transform( 1, 0, 0, 0, 1, 0, 0, 0, 1, -40, 0, -127 )
visible = false

[node name="MeshInstance" type="MeshInstance" parent="SpawnNodes/SpawnNode2"]
mesh = SubResource( 22 )
material/0 = SubResource( 23 )

[node name="SpawnNode3" type="Spatial" parent="SpawnNodes"]
transform = Transform( 1, 0, 0, 0, 1, 0, 0, 0, 1, -80, 0, -127 )
visible = false

[node name="MeshInstance" type="MeshInstance" parent="SpawnNodes/SpawnNode3"]
mesh = SubResource( 22 )
material/0 = SubResource( 23 )

[node name="SpawnNode4" type="Spatial" parent="SpawnNodes"]
transform = Transform( 1, 0, 0, 0, 1, 0, 0, 0, 1, -80, 0, -167 )
visible = false

[node name="MeshInstance" type="MeshInstance" parent="SpawnNodes/SpawnNode4"]
mesh = SubResource( 22 )
material/0 = SubResource( 23 )

[node name="SpawnNode5" type="Spatial" parent="SpawnNodes"]
transform = Transform( 1, 0, 0, 0, 1, 0, 0, 0, 1, -80, 0, -207 )
visible = false

[node name="MeshInstance" type="MeshInstance" parent="SpawnNodes/SpawnNode5"]
mesh = SubResource( 22 )
material/0 = SubResource( 23 )

[node name="SpawnNode6" type="Spatial" parent="SpawnNodes"]
transform = Transform( 1, 0, 0, 0, 1, 0, 0, 0, 1, -80, 0, -247 )
visible = false

[node name="MeshInstance" type="MeshInstance" parent="SpawnNodes/SpawnNode6"]
mesh = SubResource( 22 )
material/0 = SubResource( 23 )

[node name="SpawnNode7" type="Spatial" parent="SpawnNodes"]
transform = Transform( 1, 0, 0, 0, 1, 0, 0, 0, 1, -80, 0, -287 )
visible = false

[node name="MeshInstance" type="MeshInstance" parent="SpawnNodes/SpawnNode7"]
mesh = SubResource( 22 )
material/0 = SubResource( 23 )

[node name="SpawnNode8" type="Spatial" parent="SpawnNodes"]
transform = Transform( 1, 0, 0, 0, 1, 0, 0, 0, 1, -40, 0, -287 )
visible = false

[node name="MeshInstance" type="MeshInstance" parent="SpawnNodes/SpawnNode8"]
mesh = SubResource( 22 )
material/0 = SubResource( 23 )

[node name="SpawnNode9" type="Spatial" parent="SpawnNodes"]
transform = Transform( 1, 0, 0, 0, 1, 0, 0, 0, 1, 0, 0, -287 )
visible = false

[node name="MeshInstance" type="MeshInstance" parent="SpawnNodes/SpawnNode9"]
mesh = SubResource( 22 )
material/0 = SubResource( 23 )

[node name="SpawnNode10" type="Spatial" parent="SpawnNodes"]
transform = Transform( 1, 0, 0, 0, 1, 0, 0, 0, 1, 40, 0, -287 )
visible = false

[node name="MeshInstance" type="MeshInstance" parent="SpawnNodes/SpawnNode10"]
mesh = SubResource( 22 )
material/0 = SubResource( 23 )

[node name="SpawnNode11" type="Spatial" parent="SpawnNodes"]
transform = Transform( 1, 0, 0, 0, 1, 0, 0, 0, 1, 80, 0, -287 )
visible = false

[node name="MeshInstance" type="MeshInstance" parent="SpawnNodes/SpawnNode11"]
mesh = SubResource( 22 )
material/0 = SubResource( 23 )

[node name="SpawnNode12" type="Spatial" parent="SpawnNodes"]
transform = Transform( 1, 0, 0, 0, 1, 0, 0, 0, 1, 80, 0, -247 )
visible = false

[node name="MeshInstance" type="MeshInstance" parent="SpawnNodes/SpawnNode12"]
mesh = SubResource( 22 )
material/0 = SubResource( 23 )

[node name="SpawnNode13" type="Spatial" parent="SpawnNodes"]
transform = Transform( 1, 0, 0, 0, 1, 0, 0, 0, 1, 80, 0, -207 )
visible = false

[node name="MeshInstance" type="MeshInstance" parent="SpawnNodes/SpawnNode13"]
mesh = SubResource( 22 )
material/0 = SubResource( 23 )

[node name="SpawnNode14" type="Spatial" parent="SpawnNodes"]
transform = Transform( 1, 0, 0, 0, 1, 0, 0, 0, 1, 80, 0, -167 )
visible = false

[node name="MeshInstance" type="MeshInstance" parent="SpawnNodes/SpawnNode14"]
mesh = SubResource( 22 )
material/0 = SubResource( 23 )

[node name="SpawnNode15" type="Spatial" parent="SpawnNodes"]
transform = Transform( 1, 0, 0, 0, 1, 0, 0, 0, 1, 80, 0, -127 )
visible = false

[node name="MeshInstance" type="MeshInstance" parent="SpawnNodes/SpawnNode15"]
mesh = SubResource( 22 )
material/0 = SubResource( 23 )

[node name="SpawnNode16" type="Spatial" parent="SpawnNodes"]
transform = Transform( 1, 0, 0, 0, 1, 0, 0, 0, 1, 40, 0, -127 )
visible = false

[node name="MeshInstance" type="MeshInstance" parent="SpawnNodes/SpawnNode16"]
mesh = SubResource( 22 )
material/0 = SubResource( 23 )

[node name="WaveTimer" type="Timer" parent="."]
wait_time = 20.0

[node name="path_0" type="Node" parent="."]

[node name="00" type="Spatial" parent="path_0"]
transform = Transform( 1, 0, 0, 0, 1, 0, 0, 0, 1, 0, 10, -207 )
[connection signal="timeout" from="WaveTimer" to="." method="_on_WaveTimer_timeout"]
