[gd_scene load_steps=3 format=2]

[sub_resource type="BoxShape" id=2]

[sub_resource type="CubeMesh" id=1]

[node name="box primative" type="KinematicBody"]
transform = Transform( 1, 0, 0, 0, 1, 0, 0, 0, 1, 0, 0, 10 )

[node name="CollisionShape" type="CollisionShape" parent="."]
shape = SubResource( 2 )

[node name="MeshInstance" type="MeshInstance" parent="."]
mesh = SubResource( 1 )
material/0 = null
