[gd_scene load_steps=6 format=2]

[ext_resource path="res://src/hit_effect.gd" type="Script" id=1]
[ext_resource path="res://assets/textures/dirt_particle.png" type="Texture" id=2]

[sub_resource type="SpatialMaterial" id=2]
flags_unshaded = true
vertex_color_use_as_albedo = true
params_blend_mode = 1
params_billboard_mode = 1
albedo_color = Color( 0.501961, 0.501961, 0.501961, 1 )
albedo_texture = ExtResource( 2 )

[sub_resource type="ParticlesMaterial" id=1]
direction = Vector3( 0, 1, 0 )
spread = 90.0
initial_velocity = 5.0
initial_velocity_random = 1.0

[sub_resource type="QuadMesh" id=3]
size = Vector2( 0.25, 0.25 )

[node name="hit_effect" type="Spatial"]
script = ExtResource( 1 )

[node name="Particles" type="Particles" parent="."]
material_override = SubResource( 2 )
emitting = false
one_shot = true
explosiveness = 1.0
process_material = SubResource( 1 )
draw_pass_1 = SubResource( 3 )
