[gd_scene load_steps=4 format=2]

[ext_resource path="res://src/target.gd" type="Script" id=1]

[sub_resource type="CubeMesh" id=1]

[sub_resource type="BoxShape" id=2]

[node name="target" type="KinematicBody"]
script = ExtResource( 1 )

[node name="MeshInstance" type="MeshInstance" parent="."]
mesh = SubResource( 1 )
material/0 = null

[node name="CollisionShape" type="CollisionShape" parent="."]
shape = SubResource( 2 )
